<?xml version="1.0"?>
<font>
  <info face="Arial" size="32" bold="0" italic="0" charset="" unicode="1" stretchH="100" smooth="1" aa="1" padding="0,0,0,0" spacing="1,1" outline="0"/>
  <common lineHeight="32" base="26" scaleW="256" scaleH="256" pages="3" packed="0" alphaChnl="1" redChnl="0" greenChnl="0" blueChnl="0"/>
  <pages>
    <page id="0" file="fonttest_0.png" />
    <page id="1" file="fonttest_1.png" />
    <page id="2" file="fonttest_2.png" />
  </pages>
  <chars count="527">
    <char id="32" x="25" y="57" width="3" height="1" xoffset="-1" yoffset="31" xadvance="8" page="0" chnl="15" />
    <char id="33" x="131" y="168" width="4" height="20" xoffset="2" yoffset="6" xadvance="8" page="2" chnl="15" />
    <char id="34" x="42" y="247" width="10" height="7" xoffset="0" yoffset="6" xadvance="10" page="0" chnl="15" />
    <char id="35" x="120" y="21" width="16" height="20" xoffset="-1" yoffset="6" xadvance="15" page="2" chnl="15" />
    <char id="36" x="175" y="77" width="15" height="23" xoffset="0" yoffset="5" xadvance="15" page="1" chnl="15" />
    <char id="37" x="120" y="168" width="22" height="20" xoffset="1" yoffset="6" xadvance="24" page="1" chnl="15" />
    <char id="38" x="188" y="231" width="17" height="20" xoffset="1" yoffset="6" xadvance="18" page="1" chnl="15" />
    <char id="39" x="63" y="247" width="5" height="7" xoffset="0" yoffset="6" xadvance="5" page="0" chnl="15" />
    <char id="40" x="173" y="26" width="8" height="25" xoffset="1" yoffset="6" xadvance="9" page="1" chnl="15" />
    <char id="41" x="182" y="26" width="8" height="25" xoffset="1" yoffset="6" xadvance="9" page="1" chnl="15" />
    <char id="42" x="30" y="247" width="11" height="8" xoffset="0" yoffset="6" xadvance="11" page="0" chnl="15" />
    <char id="43" x="181" y="241" width="14" height="12" xoffset="1" yoffset="10" xadvance="16" page="0" chnl="15" />
    <char id="44" x="77" y="247" width="4" height="6" xoffset="2" yoffset="24" xadvance="8" page="0" chnl="15" />
    <char id="45" x="122" y="215" width="9" height="2" xoffset="0" yoffset="18" xadvance="9" page="0" chnl="15" />
    <char id="46" x="28" y="253" width="4" height="2" xoffset="2" yoffset="24" xadvance="8" page="1" chnl="15" />
    <char id="47" x="236" y="147" width="10" height="20" xoffset="-1" yoffset="6" xadvance="8" page="2" chnl="15" />
    <char id="48" x="111" y="84" width="14" height="20" xoffset="0" yoffset="6" xadvance="15" page="2" chnl="15" />
    <char id="49" x="20" y="168" width="9" height="20" xoffset="2" yoffset="6" xadvance="15" page="2" chnl="15" />
    <char id="50" x="0" y="126" width="14" height="20" xoffset="0" yoffset="6" xadvance="15" page="2" chnl="15" />
    <char id="51" x="112" y="147" width="13" height="20" xoffset="1" yoffset="6" xadvance="15" page="2" chnl="15" />
    <char id="52" x="45" y="105" width="14" height="20" xoffset="0" yoffset="6" xadvance="15" page="2" chnl="15" />
    <char id="53" x="126" y="147" width="13" height="20" xoffset="1" yoffset="6" xadvance="15" page="2" chnl="15" />
    <char id="54" x="0" y="105" width="14" height="20" xoffset="0" yoffset="6" xadvance="15" page="2" chnl="15" />
    <char id="55" x="60" y="126" width="13" height="20" xoffset="1" yoffset="6" xadvance="15" page="2" chnl="15" />
    <char id="56" x="64" y="84" width="15" height="20" xoffset="0" yoffset="6" xadvance="15" page="2" chnl="15" />
    <char id="57" x="80" y="84" width="15" height="20" xoffset="0" yoffset="6" xadvance="15" page="2" chnl="15" />
    <char id="58" x="250" y="188" width="4" height="15" xoffset="2" yoffset="11" xadvance="8" page="2" chnl="15" />
    <char id="59" x="85" y="189" width="4" height="19" xoffset="2" yoffset="11" xadvance="8" page="2" chnl="15" />
    <char id="60" x="166" y="241" width="14" height="13" xoffset="1" yoffset="10" xadvance="16" page="0" chnl="15" />
    <char id="61" x="15" y="247" width="14" height="8" xoffset="1" yoffset="12" xadvance="16" page="0" chnl="15" />
    <char id="62" x="136" y="241" width="14" height="13" xoffset="1" yoffset="10" xadvance="16" page="0" chnl="15" />
    <char id="63" x="242" y="207" width="13" height="20" xoffset="1" yoffset="6" xadvance="15" page="1" chnl="15" />
    <char id="64" x="153" y="0" width="26" height="26" xoffset="1" yoffset="6" xadvance="27" page="0" chnl="15" />
    <char id="65" x="142" y="210" width="19" height="20" xoffset="-1" yoffset="6" xadvance="18" page="1" chnl="15" />
    <char id="66" x="188" y="21" width="16" height="20" xoffset="1" yoffset="6" xadvance="18" page="2" chnl="15" />
    <char id="67" x="19" y="232" width="18" height="20" xoffset="1" yoffset="6" xadvance="20" page="1" chnl="15" />
    <char id="68" x="206" y="230" width="17" height="20" xoffset="2" yoffset="6" xadvance="20" page="1" chnl="15" />
    <char id="69" x="137" y="21" width="16" height="20" xoffset="1" yoffset="6" xadvance="18" page="2" chnl="15" />
    <char id="70" x="198" y="42" width="15" height="20" xoffset="2" yoffset="6" xadvance="17" page="2" chnl="15" />
    <char id="71" x="62" y="211" width="19" height="20" xoffset="1" yoffset="6" xadvance="21" page="1" chnl="15" />
    <char id="72" x="198" y="0" width="17" height="20" xoffset="1" yoffset="6" xadvance="19" page="2" chnl="15" />
    <char id="73" x="151" y="168" width="4" height="20" xoffset="2" yoffset="6" xadvance="8" page="2" chnl="15" />
    <char id="74" x="153" y="147" width="12" height="20" xoffset="0" yoffset="6" xadvance="13" page="2" chnl="15" />
    <char id="75" x="133" y="231" width="18" height="20" xoffset="1" yoffset="6" xadvance="18" page="1" chnl="15" />
    <char id="76" x="156" y="84" width="14" height="20" xoffset="1" yoffset="6" xadvance="15" page="2" chnl="15" />
    <char id="77" x="90" y="189" width="21" height="20" xoffset="1" yoffset="6" xadvance="23" page="1" chnl="15" />
    <char id="78" x="152" y="231" width="17" height="20" xoffset="1" yoffset="6" xadvance="19" page="1" chnl="15" />
    <char id="79" x="197" y="188" width="20" height="20" xoffset="1" yoffset="6" xadvance="21" page="1" chnl="15" />
    <char id="80" x="239" y="186" width="16" height="20" xoffset="1" yoffset="6" xadvance="17" page="1" chnl="15" />
    <char id="81" x="181" y="101" width="21" height="21" xoffset="0" yoffset="6" xadvance="21" page="1" chnl="15" />
    <char id="82" x="114" y="231" width="18" height="20" xoffset="2" yoffset="6" xadvance="20" page="1" chnl="15" />
    <char id="83" x="171" y="21" width="16" height="20" xoffset="1" yoffset="6" xadvance="18" page="2" chnl="15" />
    <char id="84" x="52" y="21" width="16" height="20" xoffset="0" yoffset="6" xadvance="16" page="2" chnl="15" />
    <char id="85" x="0" y="0" width="17" height="20" xoffset="1" yoffset="6" xadvance="19" page="2" chnl="15" />
    <char id="86" x="180" y="0" width="17" height="20" xoffset="0" yoffset="6" xadvance="17" page="2" chnl="15" />
    <char id="87" x="61" y="147" width="28" height="20" xoffset="0" yoffset="6" xadvance="28" page="1" chnl="15" />
    <char id="88" x="162" y="0" width="17" height="20" xoffset="0" yoffset="6" xadvance="17" page="2" chnl="15" />
    <char id="89" x="0" y="232" width="18" height="20" xoffset="0" yoffset="6" xadvance="18" page="1" chnl="15" />
    <char id="90" x="126" y="0" width="17" height="20" xoffset="0" yoffset="6" xadvance="17" page="2" chnl="15" />
    <char id="91" x="217" y="26" width="7" height="25" xoffset="1" yoffset="6" xadvance="8" page="1" chnl="15" />
    <char id="92" x="246" y="42" width="9" height="20" xoffset="-1" yoffset="6" xadvance="8" page="2" chnl="15" />
    <char id="93" x="225" y="26" width="7" height="25" xoffset="0" yoffset="6" xadvance="8" page="1" chnl="15" />
    <char id="94" x="100" y="244" width="12" height="10" xoffset="0" yoffset="6" xadvance="12" page="0" chnl="15" />
    <char id="95" x="224" y="253" width="17" height="2" xoffset="-1" yoffset="29" xadvance="15" page="0" chnl="15" />
    <char id="96" x="89" y="251" width="6" height="4" xoffset="1" yoffset="6" xadvance="9" page="0" chnl="15" />
    <char id="97" x="0" y="227" width="14" height="15" xoffset="0" yoffset="11" xadvance="15" page="2" chnl="15" />
    <char id="98" x="96" y="84" width="14" height="20" xoffset="1" yoffset="6" xadvance="15" page="2" chnl="15" />
    <char id="99" x="74" y="225" width="13" height="15" xoffset="0" yoffset="11" xadvance="14" page="2" chnl="15" />
    <char id="100" x="126" y="84" width="14" height="20" xoffset="0" yoffset="6" xadvance="15" page="2" chnl="15" />
    <char id="101" x="228" y="207" width="15" height="15" xoffset="0" yoffset="11" xadvance="15" page="2" chnl="15" />
    <char id="102" x="214" y="147" width="10" height="20" xoffset="-1" yoffset="6" xadvance="7" page="2" chnl="15" />
    <char id="103" x="171" y="84" width="14" height="20" xoffset="0" yoffset="11" xadvance="15" page="2" chnl="15" />
    <char id="104" x="102" y="126" width="13" height="20" xoffset="1" yoffset="6" xadvance="15" page="2" chnl="15" />
    <char id="105" x="141" y="168" width="4" height="20" xoffset="1" yoffset="6" xadvance="6" page="2" chnl="15" />
    <char id="106" x="209" y="26" width="7" height="25" xoffset="-2" yoffset="6" xadvance="6" page="1" chnl="15" />
    <char id="107" x="242" y="228" width="13" height="20" xoffset="1" yoffset="6" xadvance="14" page="1" chnl="15" />
    <char id="108" x="156" y="168" width="4" height="20" xoffset="1" yoffset="6" xadvance="6" page="2" chnl="15" />
    <char id="109" x="122" y="208" width="20" height="15" xoffset="1" yoffset="11" xadvance="22" page="2" chnl="15" />
    <char id="110" x="88" y="225" width="13" height="15" xoffset="1" yoffset="11" xadvance="15" page="2" chnl="15" />
    <char id="111" x="212" y="207" width="15" height="15" xoffset="0" yoffset="11" xadvance="15" page="2" chnl="15" />
    <char id="112" x="60" y="105" width="14" height="20" xoffset="1" yoffset="11" xadvance="15" page="2" chnl="15" />
    <char id="113" x="75" y="105" width="14" height="20" xoffset="0" yoffset="11" xadvance="15" page="2" chnl="15" />
    <char id="114" x="170" y="224" width="9" height="15" xoffset="1" yoffset="11" xadvance="9" page="2" chnl="15" />
    <char id="115" x="30" y="227" width="14" height="15" xoffset="0" yoffset="11" xadvance="14" page="2" chnl="15" />
    <char id="116" x="48" y="168" width="8" height="20" xoffset="0" yoffset="6" xadvance="8" page="2" chnl="15" />
    <char id="117" x="116" y="224" width="13" height="15" xoffset="1" yoffset="11" xadvance="15" page="2" chnl="15" />
    <char id="118" x="196" y="207" width="15" height="15" xoffset="-1" yoffset="11" xadvance="13" page="2" chnl="15" />
    <char id="119" x="101" y="208" width="20" height="15" xoffset="-1" yoffset="11" xadvance="19" page="2" chnl="15" />
    <char id="120" x="144" y="224" width="12" height="15" xoffset="0" yoffset="11" xadvance="12" page="2" chnl="15" />
    <char id="121" x="195" y="105" width="14" height="20" xoffset="0" yoffset="11" xadvance="14" page="2" chnl="15" />
    <char id="122" x="102" y="224" width="13" height="15" xoffset="0" yoffset="11" xadvance="13" page="2" chnl="15" />
    <char id="123" x="153" y="26" width="9" height="25" xoffset="0" yoffset="6" xadvance="9" page="1" chnl="15" />
    <char id="124" x="240" y="26" width="4" height="25" xoffset="1" yoffset="6" xadvance="6" page="1" chnl="15" />
    <char id="125" x="163" y="26" width="9" height="25" xoffset="0" yoffset="6" xadvance="9" page="1" chnl="15" />
    <char id="126" x="82" y="246" width="16" height="4" xoffset="0" yoffset="14" xadvance="16" page="0" chnl="15" />
    <char id="160" x="21" y="57" width="3" height="1" xoffset="-1" yoffset="31" xadvance="8" page="0" chnl="15" />
    <char id="161" x="161" y="168" width="4" height="20" xoffset="2" yoffset="11" xadvance="8" page="2" chnl="15" />
    <char id="162" x="71" y="26" width="13" height="25" xoffset="1" yoffset="6" xadvance="15" page="1" chnl="15" />
    <char id="163" x="166" y="42" width="15" height="20" xoffset="0" yoffset="6" xadvance="15" page="2" chnl="15" />
    <char id="164" x="151" y="241" width="14" height="13" xoffset="0" yoffset="10" xadvance="15" page="0" chnl="15" />
    <char id="165" x="154" y="21" width="16" height="20" xoffset="-1" yoffset="6" xadvance="15" page="2" chnl="15" />
    <char id="166" x="245" y="26" width="4" height="25" xoffset="1" yoffset="6" xadvance="6" page="1" chnl="15" />
    <char id="167" x="0" y="26" width="14" height="25" xoffset="0" yoffset="6" xadvance="15" page="1" chnl="15" />
    <char id="168" x="18" y="253" width="9" height="2" xoffset="0" yoffset="6" xadvance="9" page="1" chnl="15" />
    <char id="169" x="0" y="190" width="22" height="20" xoffset="-1" yoffset="6" xadvance="20" page="1" chnl="15" />
    <char id="170" x="113" y="244" width="10" height="10" xoffset="0" yoffset="6" xadvance="10" page="0" chnl="15" />
    <char id="171" x="210" y="241" width="13" height="12" xoffset="1" yoffset="13" xadvance="15" page="0" chnl="15" />
    <char id="172" x="0" y="247" width="14" height="8" xoffset="1" yoffset="12" xadvance="16" page="0" chnl="15" />
    <char id="173" x="242" y="252" width="9" height="2" xoffset="0" yoffset="18" xadvance="9" page="0" chnl="15" />
    <char id="174" x="97" y="168" width="22" height="20" xoffset="-1" yoffset="6" xadvance="20" page="1" chnl="15" />
    <char id="175" x="0" y="253" width="17" height="2" xoffset="-1" yoffset="3" xadvance="15" page="1" chnl="15" />
    <char id="176" x="53" y="247" width="9" height="7" xoffset="1" yoffset="6" xadvance="11" page="0" chnl="15" />
    <char id="177" x="34" y="209" width="15" height="16" xoffset="0" yoffset="10" xadvance="15" page="2" chnl="15" />
    <char id="178" x="185" y="223" width="9" height="10" xoffset="0" yoffset="6" xadvance="9" page="2" chnl="15" />
    <char id="179" x="195" y="223" width="9" height="10" xoffset="0" yoffset="6" xadvance="9" page="2" chnl="15" />
    <char id="180" x="82" y="251" width="6" height="4" xoffset="2" yoffset="6" xadvance="9" page="0" chnl="15" />
    <char id="181" x="216" y="84" width="14" height="20" xoffset="1" yoffset="11" xadvance="16" page="2" chnl="15" />
    <char id="182" x="172" y="215" width="17" height="25" xoffset="-1" yoffset="6" xadvance="15" page="0" chnl="15" />
    <char id="183" x="248" y="73" width="5" height="2" xoffset="2" yoffset="16" xadvance="9" page="1" chnl="15" />
    <char id="184" x="69" y="247" width="7" height="6" xoffset="1" yoffset="26" xadvance="9" page="0" chnl="15" />
    <char id="185" x="205" y="223" width="6" height="10" xoffset="1" yoffset="6" xadvance="9" page="2" chnl="15" />
    <char id="186" x="124" y="244" width="10" height="10" xoffset="0" yoffset="6" xadvance="10" page="0" chnl="15" />
    <char id="187" x="196" y="241" width="13" height="12" xoffset="1" yoffset="13" xadvance="15" page="0" chnl="15" />
    <char id="188" x="74" y="168" width="22" height="20" xoffset="1" yoffset="6" xadvance="23" page="1" chnl="15" />
    <char id="189" x="143" y="168" width="22" height="20" xoffset="1" yoffset="6" xadvance="23" page="1" chnl="15" />
    <char id="190" x="50" y="169" width="23" height="20" xoffset="0" yoffset="6" xadvance="23" page="1" chnl="15" />
    <char id="191" x="48" y="84" width="15" height="20" xoffset="1" yoffset="11" xadvance="17" page="2" chnl="15" />
    <char id="192" x="140" y="54" width="19" height="26" xoffset="-1" yoffset="0" xadvance="18" page="0" chnl="15" />
    <char id="193" x="208" y="27" width="19" height="26" xoffset="-1" yoffset="0" xadvance="18" page="0" chnl="15" />
    <char id="194" x="188" y="27" width="19" height="26" xoffset="-1" yoffset="0" xadvance="18" page="0" chnl="15" />
    <char id="195" x="61" y="221" width="19" height="25" xoffset="-1" yoffset="1" xadvance="18" page="0" chnl="15" />
    <char id="196" x="151" y="52" width="19" height="24" xoffset="-1" yoffset="2" xadvance="18" page="1" chnl="15" />
    <char id="197" x="171" y="52" width="19" height="24" xoffset="-1" yoffset="2" xadvance="18" page="1" chnl="15" />
    <char id="198" x="119" y="147" width="27" height="20" xoffset="-1" yoffset="6" xadvance="27" page="1" chnl="15" />
    <char id="199" x="38" y="86" width="18" height="26" xoffset="1" yoffset="6" xadvance="20" page="0" chnl="15" />
    <char id="200" x="126" y="135" width="16" height="26" xoffset="1" yoffset="0" xadvance="18" page="0" chnl="15" />
    <char id="201" x="119" y="162" width="16" height="26" xoffset="1" yoffset="0" xadvance="18" page="0" chnl="15" />
    <char id="202" x="34" y="167" width="16" height="26" xoffset="1" yoffset="0" xadvance="18" page="0" chnl="15" />
    <char id="203" x="88" y="77" width="16" height="24" xoffset="1" yoffset="2" xadvance="18" page="1" chnl="15" />
    <char id="204" x="69" y="194" width="5" height="26" xoffset="1" yoffset="0" xadvance="8" page="0" chnl="15" />
    <char id="205" x="56" y="194" width="6" height="26" xoffset="2" yoffset="0" xadvance="8" page="0" chnl="15" />
    <char id="206" x="25" y="194" width="10" height="26" xoffset="-1" yoffset="0" xadvance="8" page="0" chnl="15" />
    <char id="207" x="147" y="77" width="9" height="24" xoffset="-1" yoffset="2" xadvance="8" page="1" chnl="15" />
    <char id="208" x="176" y="189" width="20" height="20" xoffset="-1" yoffset="6" xadvance="20" page="1" chnl="15" />
    <char id="209" x="18" y="0" width="17" height="25" xoffset="1" yoffset="1" xadvance="19" page="1" chnl="15" />
    <char id="210" x="222" y="0" width="20" height="26" xoffset="1" yoffset="0" xadvance="21" page="0" chnl="15" />
    <char id="211" x="201" y="0" width="20" height="26" xoffset="1" yoffset="0" xadvance="21" page="0" chnl="15" />
    <char id="212" x="21" y="30" width="20" height="26" xoffset="1" yoffset="0" xadvance="21" page="0" chnl="15" />
    <char id="213" x="228" y="189" width="20" height="25" xoffset="1" yoffset="1" xadvance="21" page="0" chnl="15" />
    <char id="214" x="28" y="52" width="20" height="24" xoffset="1" yoffset="2" xadvance="21" page="1" chnl="15" />
    <char id="215" x="224" y="241" width="13" height="11" xoffset="1" yoffset="11" xadvance="16" page="0" chnl="15" />
    <char id="216" x="203" y="101" width="20" height="21" xoffset="0" yoffset="6" xadvance="21" page="1" chnl="15" />
    <char id="217" x="18" y="140" width="17" height="26" xoffset="1" yoffset="0" xadvance="19" page="0" chnl="15" />
    <char id="218" x="36" y="140" width="17" height="26" xoffset="1" yoffset="0" xadvance="19" page="0" chnl="15" />
    <char id="219" x="54" y="140" width="17" height="26" xoffset="1" yoffset="0" xadvance="19" page="0" chnl="15" />
    <char id="220" x="0" y="77" width="17" height="24" xoffset="1" yoffset="2" xadvance="19" page="1" chnl="15" />
    <char id="221" x="95" y="81" width="18" height="26" xoffset="0" yoffset="0" xadvance="18" page="0" chnl="15" />
    <char id="222" x="18" y="0" width="17" height="20" xoffset="1" yoffset="6" xadvance="18" page="2" chnl="15" />
    <char id="223" x="35" y="21" width="16" height="20" xoffset="1" yoffset="6" xadvance="17" page="2" chnl="15" />
    <char id="224" x="30" y="126" width="14" height="20" xoffset="0" yoffset="6" xadvance="15" page="2" chnl="15" />
    <char id="225" x="180" y="105" width="14" height="20" xoffset="0" yoffset="6" xadvance="15" page="2" chnl="15" />
    <char id="226" x="135" y="105" width="14" height="20" xoffset="0" yoffset="6" xadvance="15" page="2" chnl="15" />
    <char id="227" x="239" y="168" width="14" height="19" xoffset="0" yoffset="7" xadvance="15" page="2" chnl="15" />
    <char id="228" x="154" y="189" width="14" height="18" xoffset="0" yoffset="8" xadvance="15" page="2" chnl="15" />
    <char id="229" x="31" y="126" width="14" height="21" xoffset="0" yoffset="5" xadvance="15" page="1" chnl="15" />
    <char id="230" x="76" y="209" width="24" height="15" xoffset="0" yoffset="11" xadvance="24" page="2" chnl="15" />
    <char id="231" x="90" y="125" width="13" height="21" xoffset="0" yoffset="11" xadvance="14" page="1" chnl="15" />
    <char id="232" x="112" y="63" width="15" height="20" xoffset="0" yoffset="6" xadvance="15" page="2" chnl="15" />
    <char id="233" x="96" y="63" width="15" height="20" xoffset="0" yoffset="6" xadvance="15" page="2" chnl="15" />
    <char id="234" x="48" y="63" width="15" height="20" xoffset="0" yoffset="6" xadvance="15" page="2" chnl="15" />
    <char id="235" x="106" y="189" width="15" height="18" xoffset="0" yoffset="8" xadvance="15" page="2" chnl="15" />
    <char id="236" x="117" y="168" width="6" height="20" xoffset="-1" yoffset="6" xadvance="6" page="2" chnl="15" />
    <char id="237" x="124" y="168" width="6" height="20" xoffset="1" yoffset="6" xadvance="6" page="2" chnl="15" />
    <char id="238" x="30" y="168" width="8" height="20" xoffset="-1" yoffset="6" xadvance="6" page="2" chnl="15" />
    <char id="239" x="241" y="188" width="8" height="18" xoffset="-1" yoffset="8" xadvance="6" page="2" chnl="15" />
    <char id="240" x="16" y="63" width="15" height="20" xoffset="0" yoffset="6" xadvance="15" page="2" chnl="15" />
    <char id="241" x="15" y="189" width="13" height="19" xoffset="1" yoffset="7" xadvance="15" page="2" chnl="15" />
    <char id="242" x="0" y="63" width="15" height="20" xoffset="0" yoffset="6" xadvance="15" page="2" chnl="15" />
    <char id="243" x="230" y="42" width="15" height="20" xoffset="0" yoffset="6" xadvance="15" page="2" chnl="15" />
    <char id="244" x="214" y="42" width="15" height="20" xoffset="0" yoffset="6" xadvance="15" page="2" chnl="15" />
    <char id="245" x="223" y="168" width="15" height="19" xoffset="0" yoffset="7" xadvance="15" page="2" chnl="15" />
    <char id="246" x="90" y="189" width="15" height="18" xoffset="0" yoffset="8" xadvance="15" page="2" chnl="15" />
    <char id="247" x="238" y="241" width="15" height="10" xoffset="0" yoffset="11" xadvance="15" page="0" chnl="15" />
    <char id="248" x="18" y="209" width="15" height="17" xoffset="1" yoffset="10" xadvance="17" page="2" chnl="15" />
    <char id="249" x="172" y="126" width="13" height="20" xoffset="1" yoffset="6" xadvance="15" page="2" chnl="15" />
    <char id="250" x="28" y="147" width="13" height="20" xoffset="1" yoffset="6" xadvance="15" page="2" chnl="15" />
    <char id="251" x="42" y="147" width="13" height="20" xoffset="1" yoffset="6" xadvance="15" page="2" chnl="15" />
    <char id="252" x="199" y="188" width="13" height="18" xoffset="1" yoffset="8" xadvance="15" page="2" chnl="15" />
    <char id="253" x="119" y="0" width="14" height="25" xoffset="0" yoffset="6" xadvance="14" page="1" chnl="15" />
    <char id="254" x="134" y="0" width="14" height="25" xoffset="1" yoffset="6" xadvance="15" page="1" chnl="15" />
    <char id="255" x="15" y="102" width="14" height="23" xoffset="0" yoffset="8" xadvance="14" page="1" chnl="15" />
    <char id="256" x="111" y="52" width="19" height="24" xoffset="-1" yoffset="2" xadvance="18" page="1" chnl="15" />
    <char id="257" x="0" y="189" width="14" height="19" xoffset="0" yoffset="7" xadvance="15" page="2" chnl="15" />
    <char id="258" x="0" y="59" width="19" height="26" xoffset="-1" yoffset="0" xadvance="18" page="0" chnl="15" />
    <char id="259" x="141" y="84" width="14" height="20" xoffset="0" yoffset="6" xadvance="15" page="2" chnl="15" />
    <char id="260" x="0" y="221" width="20" height="25" xoffset="-1" yoffset="6" xadvance="18" page="0" chnl="15" />
    <char id="261" x="205" y="21" width="16" height="20" xoffset="0" yoffset="11" xadvance="15" page="2" chnl="15" />
    <char id="262" x="19" y="86" width="18" height="26" xoffset="1" yoffset="0" xadvance="20" page="0" chnl="15" />
    <char id="263" x="70" y="147" width="13" height="20" xoffset="0" yoffset="6" xadvance="14" page="2" chnl="15" />
    <char id="264" x="171" y="81" width="18" height="26" xoffset="1" yoffset="0" xadvance="20" page="0" chnl="15" />
    <char id="265" x="84" y="147" width="13" height="20" xoffset="0" yoffset="6" xadvance="14" page="2" chnl="15" />
    <char id="266" x="210" y="52" width="18" height="24" xoffset="1" yoffset="2" xadvance="20" page="1" chnl="15" />
    <char id="267" x="227" y="188" width="13" height="18" xoffset="0" yoffset="8" xadvance="14" page="2" chnl="15" />
    <char id="268" x="220" y="54" width="18" height="26" xoffset="1" yoffset="0" xadvance="20" page="0" chnl="15" />
    <char id="269" x="98" y="147" width="13" height="20" xoffset="0" yoffset="6" xadvance="14" page="2" chnl="15" />
    <char id="270" x="72" y="138" width="17" height="26" xoffset="2" yoffset="0" xadvance="20" page="0" chnl="15" />
    <char id="271" x="57" y="232" width="18" height="20" xoffset="0" yoffset="6" xadvance="17" page="1" chnl="15" />
    <char id="272" x="218" y="186" width="20" height="20" xoffset="-1" yoffset="6" xadvance="20" page="1" chnl="15" />
    <char id="273" x="85" y="42" width="16" height="20" xoffset="0" yoffset="6" xadvance="15" page="2" chnl="15" />
    <char id="274" x="54" y="77" width="16" height="24" xoffset="1" yoffset="2" xadvance="18" page="1" chnl="15" />
    <char id="275" x="191" y="168" width="15" height="19" xoffset="0" yoffset="7" xadvance="15" page="2" chnl="15" />
    <char id="276" x="0" y="167" width="16" height="26" xoffset="1" yoffset="0" xadvance="18" page="0" chnl="15" />
    <char id="277" x="160" y="63" width="15" height="20" xoffset="0" yoffset="6" xadvance="15" page="2" chnl="15" />
    <char id="278" x="71" y="77" width="16" height="24" xoffset="1" yoffset="2" xadvance="18" page="1" chnl="15" />
    <char id="279" x="138" y="189" width="15" height="18" xoffset="0" yoffset="8" xadvance="15" page="2" chnl="15" />
    <char id="280" x="154" y="215" width="17" height="25" xoffset="1" yoffset="6" xadvance="18" page="0" chnl="15" />
    <char id="281" x="118" y="42" width="15" height="20" xoffset="0" yoffset="11" xadvance="15" page="2" chnl="15" />
    <char id="282" x="17" y="167" width="16" height="26" xoffset="1" yoffset="0" xadvance="18" page="0" chnl="15" />
    <char id="283" x="150" y="42" width="15" height="20" xoffset="0" yoffset="6" xadvance="15" page="2" chnl="15" />
    <char id="284" x="100" y="54" width="19" height="26" xoffset="1" yoffset="0" xadvance="21" page="0" chnl="15" />
    <char id="285" x="224" y="0" width="14" height="25" xoffset="0" yoffset="6" xadvance="15" page="1" chnl="15" />
    <char id="286" x="120" y="54" width="19" height="26" xoffset="1" yoffset="0" xadvance="21" page="0" chnl="15" />
    <char id="287" x="239" y="0" width="14" height="25" xoffset="0" yoffset="6" xadvance="15" page="1" chnl="15" />
    <char id="288" x="131" y="52" width="19" height="24" xoffset="1" yoffset="2" xadvance="21" page="1" chnl="15" />
    <char id="289" x="0" y="102" width="14" height="23" xoffset="0" yoffset="8" xadvance="15" page="1" chnl="15" />
    <char id="290" x="168" y="27" width="19" height="26" xoffset="1" yoffset="6" xadvance="21" page="0" chnl="15" />
    <char id="291" x="181" y="162" width="14" height="26" xoffset="0" yoffset="5" xadvance="15" page="0" chnl="15" />
    <char id="292" x="198" y="108" width="17" height="26" xoffset="1" yoffset="0" xadvance="19" page="0" chnl="15" />
    <char id="293" x="225" y="162" width="13" height="26" xoffset="1" yoffset="0" xadvance="15" page="0" chnl="15" />
    <char id="294" x="122" y="210" width="19" height="20" xoffset="0" yoffset="6" xadvance="19" page="1" chnl="15" />
    <char id="295" x="182" y="42" width="15" height="20" xoffset="-1" yoffset="6" xadvance="15" page="2" chnl="15" />
    <char id="296" x="109" y="26" width="10" height="25" xoffset="-1" yoffset="1" xadvance="8" page="1" chnl="15" />
    <char id="297" x="57" y="189" width="9" height="19" xoffset="-1" yoffset="7" xadvance="6" page="2" chnl="15" />
    <char id="298" x="136" y="77" width="10" height="24" xoffset="-1" yoffset="2" xadvance="8" page="1" chnl="15" />
    <char id="299" x="76" y="189" width="8" height="19" xoffset="-1" yoffset="7" xadvance="6" page="2" chnl="15" />
    <char id="300" x="14" y="194" width="10" height="26" xoffset="-1" yoffset="0" xadvance="8" page="0" chnl="15" />
    <char id="301" x="66" y="168" width="8" height="20" xoffset="-1" yoffset="6" xadvance="6" page="2" chnl="15" />
    <char id="302" x="233" y="26" width="6" height="25" xoffset="1" yoffset="6" xadvance="8" page="1" chnl="15" />
    <char id="303" x="249" y="189" width="6" height="25" xoffset="0" yoffset="6" xadvance="6" page="0" chnl="15" />
    <char id="304" x="250" y="26" width="4" height="24" xoffset="2" yoffset="2" xadvance="8" page="1" chnl="15" />
    <char id="305" x="180" y="223" width="4" height="15" xoffset="1" yoffset="11" xadvance="6" page="2" chnl="15" />
    <char id="306" x="170" y="231" width="17" height="20" xoffset="2" yoffset="6" xadvance="20" page="1" chnl="15" />
    <char id="307" x="98" y="26" width="10" height="25" xoffset="1" yoffset="6" xadvance="12" page="1" chnl="15" />
    <char id="308" x="136" y="162" width="14" height="26" xoffset="0" yoffset="0" xadvance="13" page="0" chnl="15" />
    <char id="309" x="142" y="26" width="10" height="25" xoffset="-2" yoffset="6" xadvance="6" page="1" chnl="15" />
    <char id="310" x="133" y="81" width="18" height="26" xoffset="1" yoffset="6" xadvance="18" page="0" chnl="15" />
    <char id="311" x="239" y="162" width="13" height="26" xoffset="1" yoffset="6" xadvance="14" page="0" chnl="15" />
    <char id="312" x="60" y="225" width="13" height="15" xoffset="1" yoffset="11" xadvance="14" page="2" chnl="15" />
    <char id="313" x="196" y="162" width="14" height="26" xoffset="1" yoffset="0" xadvance="15" page="0" chnl="15" />
    <char id="314" x="248" y="27" width="6" height="26" xoffset="1" yoffset="0" xadvance="6" page="0" chnl="15" />
    <char id="315" x="151" y="162" width="14" height="26" xoffset="1" yoffset="6" xadvance="15" page="0" chnl="15" />
    <char id="316" x="63" y="194" width="5" height="26" xoffset="1" yoffset="6" xadvance="6" page="0" chnl="15" />
    <char id="317" x="30" y="105" width="14" height="20" xoffset="1" yoffset="6" xadvance="15" page="2" chnl="15" />
    <char id="318" x="93" y="168" width="8" height="20" xoffset="1" yoffset="6" xadvance="8" page="2" chnl="15" />
    <char id="319" x="90" y="105" width="14" height="20" xoffset="1" yoffset="6" xadvance="15" page="2" chnl="15" />
    <char id="320" x="84" y="168" width="8" height="20" xoffset="1" yoffset="6" xadvance="9" page="2" chnl="15" />
    <char id="321" x="34" y="42" width="16" height="20" xoffset="-1" yoffset="6" xadvance="15" page="2" chnl="15" />
    <char id="322" x="75" y="168" width="8" height="20" xoffset="-1" yoffset="6" xadvance="6" page="2" chnl="15" />
    <char id="323" x="228" y="81" width="17" height="26" xoffset="1" yoffset="0" xadvance="19" page="0" chnl="15" />
    <char id="324" x="242" y="126" width="13" height="20" xoffset="1" yoffset="6" xadvance="15" page="2" chnl="15" />
    <char id="325" x="108" y="135" width="17" height="26" xoffset="1" yoffset="6" xadvance="19" page="0" chnl="15" />
    <char id="326" x="118" y="125" width="13" height="21" xoffset="1" yoffset="11" xadvance="15" page="1" chnl="15" />
    <char id="327" x="0" y="113" width="17" height="26" xoffset="1" yoffset="0" xadvance="19" page="0" chnl="15" />
    <char id="328" x="228" y="126" width="13" height="20" xoffset="1" yoffset="6" xadvance="15" page="2" chnl="15" />
    <char id="329" x="68" y="42" width="16" height="20" xoffset="-1" yoffset="6" xadvance="16" page="2" chnl="15" />
    <char id="330" x="234" y="0" width="17" height="20" xoffset="2" yoffset="6" xadvance="20" page="2" chnl="15" />
    <char id="331" x="214" y="126" width="13" height="20" xoffset="1" yoffset="11" xadvance="15" page="2" chnl="15" />
    <char id="332" x="49" y="52" width="20" height="24" xoffset="1" yoffset="2" xadvance="21" page="1" chnl="15" />
    <char id="333" x="207" y="168" width="15" height="19" xoffset="0" yoffset="7" xadvance="15" page="2" chnl="15" />
    <char id="334" x="0" y="32" width="20" height="26" xoffset="1" yoffset="0" xadvance="21" page="0" chnl="15" />
    <char id="335" x="16" y="84" width="15" height="20" xoffset="0" yoffset="6" xadvance="15" page="2" chnl="15" />
    <char id="336" x="63" y="27" width="20" height="26" xoffset="1" yoffset="0" xadvance="21" page="0" chnl="15" />
    <char id="337" x="32" y="84" width="15" height="20" xoffset="0" yoffset="6" xadvance="15" page="2" chnl="15" />
    <char id="338" x="174" y="146" width="26" height="20" xoffset="1" yoffset="6" xadvance="27" page="1" chnl="15" />
    <char id="339" x="50" y="209" width="25" height="15" xoffset="0" yoffset="11" xadvance="25" page="2" chnl="15" />
    <char id="340" x="152" y="81" width="18" height="26" xoffset="2" yoffset="0" xadvance="20" page="0" chnl="15" />
    <char id="341" x="0" y="168" width="9" height="20" xoffset="1" yoffset="6" xadvance="9" page="2" chnl="15" />
    <char id="342" x="114" y="81" width="18" height="26" xoffset="2" yoffset="6" xadvance="20" page="0" chnl="15" />
    <char id="343" x="142" y="125" width="9" height="21" xoffset="1" yoffset="11" xadvance="9" page="1" chnl="15" />
    <char id="344" x="57" y="84" width="18" height="26" xoffset="2" yoffset="0" xadvance="20" page="0" chnl="15" />
    <char id="345" x="246" y="84" width="9" height="20" xoffset="1" yoffset="6" xadvance="9" page="2" chnl="15" />
    <char id="346" x="143" y="135" width="16" height="26" xoffset="1" yoffset="0" xadvance="18" page="0" chnl="15" />
    <char id="347" x="210" y="105" width="14" height="20" xoffset="0" yoffset="6" xadvance="14" page="2" chnl="15" />
    <char id="348" x="194" y="135" width="16" height="26" xoffset="1" yoffset="0" xadvance="18" page="0" chnl="15" />
    <char id="349" x="225" y="105" width="14" height="20" xoffset="0" yoffset="6" xadvance="14" page="2" chnl="15" />
    <char id="350" x="211" y="135" width="16" height="26" xoffset="1" yoffset="6" xadvance="18" page="0" chnl="15" />
    <char id="351" x="46" y="126" width="14" height="21" xoffset="0" yoffset="11" xadvance="14" page="1" chnl="15" />
    <char id="352" x="160" y="135" width="16" height="26" xoffset="1" yoffset="0" xadvance="18" page="0" chnl="15" />
    <char id="353" x="15" y="105" width="14" height="20" xoffset="0" yoffset="6" xadvance="14" page="2" chnl="15" />
    <char id="354" x="177" y="135" width="16" height="26" xoffset="0" yoffset="6" xadvance="16" page="0" chnl="15" />
    <char id="355" x="246" y="81" width="9" height="26" xoffset="0" yoffset="6" xadvance="8" page="0" chnl="15" />
    <char id="356" x="228" y="135" width="16" height="26" xoffset="0" yoffset="0" xadvance="16" page="0" chnl="15" />
    <char id="357" x="191" y="147" width="11" height="20" xoffset="0" yoffset="6" xadvance="10" page="2" chnl="15" />
    <char id="358" x="0" y="21" width="17" height="20" xoffset="0" yoffset="6" xadvance="17" page="2" chnl="15" />
    <char id="359" x="67" y="189" width="8" height="19" xoffset="0" yoffset="7" xadvance="8" page="2" chnl="15" />
    <char id="360" x="136" y="215" width="17" height="25" xoffset="1" yoffset="1" xadvance="19" page="0" chnl="15" />
    <char id="361" x="43" y="189" width="13" height="19" xoffset="1" yoffset="7" xadvance="15" page="2" chnl="15" />
    <char id="362" x="36" y="77" width="17" height="24" xoffset="1" yoffset="2" xadvance="19" page="1" chnl="15" />
    <char id="363" x="29" y="189" width="13" height="19" xoffset="1" yoffset="7" xadvance="15" page="2" chnl="15" />
    <char id="364" x="234" y="108" width="17" height="26" xoffset="1" yoffset="0" xadvance="19" page="0" chnl="15" />
    <char id="365" x="200" y="126" width="13" height="20" xoffset="1" yoffset="6" xadvance="15" page="2" chnl="15" />
    <char id="366" x="216" y="108" width="17" height="26" xoffset="1" yoffset="0" xadvance="19" page="0" chnl="15" />
    <char id="367" x="76" y="125" width="13" height="21" xoffset="1" yoffset="5" xadvance="15" page="1" chnl="15" />
    <char id="368" x="144" y="108" width="17" height="26" xoffset="1" yoffset="0" xadvance="19" page="0" chnl="15" />
    <char id="369" x="186" y="126" width="13" height="20" xoffset="1" yoffset="6" xadvance="15" page="2" chnl="15" />
    <char id="370" x="0" y="0" width="17" height="25" xoffset="1" yoffset="6" xadvance="19" page="1" chnl="15" />
    <char id="371" x="120" y="105" width="14" height="20" xoffset="1" yoffset="11" xadvance="15" page="2" chnl="15" />
    <char id="372" x="96" y="0" width="28" height="26" xoffset="0" yoffset="0" xadvance="28" page="0" chnl="15" />
    <char id="373" x="235" y="165" width="20" height="20" xoffset="-1" yoffset="6" xadvance="19" page="1" chnl="15" />
    <char id="374" x="76" y="82" width="18" height="26" xoffset="0" yoffset="0" xadvance="18" page="0" chnl="15" />
    <char id="375" x="149" y="0" width="14" height="25" xoffset="0" yoffset="6" xadvance="14" page="1" chnl="15" />
    <char id="376" x="191" y="52" width="18" height="24" xoffset="0" yoffset="2" xadvance="18" page="1" chnl="15" />
    <char id="377" x="180" y="108" width="17" height="26" xoffset="0" yoffset="0" xadvance="17" page="0" chnl="15" />
    <char id="378" x="158" y="126" width="13" height="20" xoffset="0" yoffset="6" xadvance="13" page="2" chnl="15" />
    <char id="379" x="18" y="77" width="17" height="24" xoffset="0" yoffset="2" xadvance="17" page="1" chnl="15" />
    <char id="380" x="213" y="188" width="13" height="18" xoffset="0" yoffset="8" xadvance="13" page="2" chnl="15" />
    <char id="381" x="162" y="108" width="17" height="26" xoffset="0" yoffset="0" xadvance="17" page="0" chnl="15" />
    <char id="382" x="116" y="126" width="13" height="20" xoffset="0" yoffset="6" xadvance="13" page="2" chnl="15" />
    <char id="383" x="247" y="147" width="8" height="20" xoffset="1" yoffset="6" xadvance="6" page="2" chnl="15" />
    <char id="384" x="239" y="21" width="16" height="20" xoffset="-1" yoffset="6" xadvance="15" page="2" chnl="15" />
    <char id="385" x="222" y="207" width="19" height="20" xoffset="0" yoffset="6" xadvance="20" page="1" chnl="15" />
    <char id="386" x="216" y="0" width="17" height="20" xoffset="1" yoffset="6" xadvance="18" page="2" chnl="15" />
    <char id="387" x="165" y="105" width="14" height="20" xoffset="1" yoffset="6" xadvance="15" page="2" chnl="15" />
    <char id="388" x="42" y="211" width="19" height="20" xoffset="-1" yoffset="6" xadvance="18" page="1" chnl="15" />
    <char id="389" x="86" y="21" width="16" height="20" xoffset="-1" yoffset="6" xadvance="15" page="2" chnl="15" />
    <char id="390" x="162" y="210" width="19" height="20" xoffset="0" yoffset="6" xadvance="20" page="1" chnl="15" />
    <char id="391" x="82" y="102" width="22" height="22" xoffset="1" yoffset="4" xadvance="20" page="1" chnl="15" />
    <char id="392" x="0" y="209" width="17" height="17" xoffset="0" yoffset="9" xadvance="14" page="2" chnl="15" />
    <char id="393" x="155" y="189" width="20" height="20" xoffset="-1" yoffset="6" xadvance="20" page="1" chnl="15" />
    <char id="394" x="68" y="190" width="21" height="20" xoffset="0" yoffset="6" xadvance="22" page="1" chnl="15" />
    <char id="395" x="144" y="0" width="17" height="20" xoffset="0" yoffset="6" xadvance="18" page="2" chnl="15" />
    <char id="396" x="231" y="84" width="14" height="20" xoffset="0" yoffset="6" xadvance="15" page="2" chnl="15" />
    <char id="397" x="80" y="63" width="15" height="20" xoffset="0" yoffset="11" xadvance="15" page="2" chnl="15" />
    <char id="398" x="222" y="21" width="16" height="20" xoffset="1" yoffset="6" xadvance="18" page="2" chnl="15" />
    <char id="399" x="102" y="210" width="19" height="20" xoffset="1" yoffset="6" xadvance="20" page="1" chnl="15" />
    <char id="400" x="103" y="21" width="16" height="20" xoffset="0" yoffset="6" xadvance="16" page="2" chnl="15" />
    <char id="401" x="81" y="220" width="18" height="25" xoffset="-1" yoffset="6" xadvance="17" page="0" chnl="15" />
    <char id="402" x="87" y="0" width="15" height="25" xoffset="0" yoffset="6" xadvance="15" page="1" chnl="15" />
    <char id="403" x="59" y="102" width="22" height="22" xoffset="1" yoffset="4" xadvance="21" page="1" chnl="15" />
    <char id="404" x="190" y="215" width="17" height="25" xoffset="0" yoffset="6" xadvance="17" page="0" chnl="15" />
    <char id="405" x="189" y="167" width="22" height="20" xoffset="1" yoffset="6" xadvance="24" page="1" chnl="15" />
    <char id="406" x="146" y="168" width="4" height="20" xoffset="1" yoffset="6" xadvance="6" page="2" chnl="15" />
    <char id="407" x="39" y="168" width="8" height="20" xoffset="0" yoffset="6" xadvance="8" page="2" chnl="15" />
    <char id="408" x="54" y="0" width="17" height="20" xoffset="1" yoffset="6" xadvance="18" page="2" chnl="15" />
    <char id="409" x="88" y="126" width="13" height="20" xoffset="1" yoffset="6" xadvance="14" page="2" chnl="15" />
    <char id="410" x="110" y="168" width="6" height="20" xoffset="0" yoffset="6" xadvance="6" page="2" chnl="15" />
    <char id="411" x="105" y="105" width="14" height="20" xoffset="0" yoffset="6" xadvance="14" page="2" chnl="15" />
    <char id="412" x="166" y="168" width="22" height="20" xoffset="1" yoffset="6" xadvance="24" page="1" chnl="15" />
    <char id="413" x="144" y="189" width="20" height="25" xoffset="-2" yoffset="6" xadvance="20" page="0" chnl="15" />
    <char id="414" x="74" y="126" width="13" height="20" xoffset="1" yoffset="11" xadvance="15" page="2" chnl="15" />
    <char id="415" x="182" y="210" width="19" height="20" xoffset="1" yoffset="6" xadvance="21" page="1" chnl="15" />
    <char id="416" x="212" y="165" width="22" height="20" xoffset="1" yoffset="6" xadvance="23" page="1" chnl="15" />
    <char id="417" x="143" y="208" width="18" height="15" xoffset="0" yoffset="11" xadvance="18" page="2" chnl="15" />
    <char id="418" x="100" y="192" width="21" height="25" xoffset="1" yoffset="6" xadvance="23" page="0" chnl="15" />
    <char id="419" x="90" y="0" width="17" height="20" xoffset="0" yoffset="11" xadvance="18" page="2" chnl="15" />
    <char id="420" x="21" y="211" width="20" height="20" xoffset="0" yoffset="6" xadvance="20" page="1" chnl="15" />
    <char id="421" x="209" y="0" width="14" height="25" xoffset="1" yoffset="6" xadvance="15" page="1" chnl="15" />
    <char id="422" x="36" y="0" width="17" height="25" xoffset="1" yoffset="6" xadvance="18" page="1" chnl="15" />
    <char id="423" x="18" y="21" width="16" height="20" xoffset="1" yoffset="6" xadvance="18" page="2" chnl="15" />
    <char id="424" x="15" y="227" width="14" height="15" xoffset="0" yoffset="11" xadvance="14" page="2" chnl="15" />
    <char id="425" x="51" y="42" width="16" height="20" xoffset="1" yoffset="6" xadvance="17" page="2" chnl="15" />
    <char id="426" x="244" y="215" width="10" height="25" xoffset="0" yoffset="6" xadvance="10" page="0" chnl="15" />
    <char id="427" x="191" y="26" width="8" height="25" xoffset="0" yoffset="6" xadvance="8" page="1" chnl="15" />
    <char id="428" x="108" y="0" width="17" height="20" xoffset="0" yoffset="6" xadvance="17" page="2" chnl="15" />
    <char id="429" x="225" y="147" width="10" height="20" xoffset="0" yoffset="6" xadvance="8" page="2" chnl="15" />
    <char id="430" x="208" y="215" width="17" height="25" xoffset="0" yoffset="6" xadvance="17" page="0" chnl="15" />
    <char id="431" x="23" y="190" width="22" height="20" xoffset="1" yoffset="6" xadvance="23" page="1" chnl="15" />
    <char id="432" x="162" y="208" width="17" height="15" xoffset="1" yoffset="11" xadvance="18" page="2" chnl="15" />
    <char id="433" x="202" y="209" width="19" height="20" xoffset="1" yoffset="6" xadvance="20" page="1" chnl="15" />
    <char id="434" x="72" y="0" width="17" height="20" xoffset="1" yoffset="6" xadvance="20" page="2" chnl="15" />
    <char id="435" x="112" y="189" width="21" height="20" xoffset="0" yoffset="6" xadvance="21" page="1" chnl="15" />
    <char id="436" x="165" y="189" width="20" height="25" xoffset="0" yoffset="6" xadvance="14" page="0" chnl="15" />
    <char id="437" x="36" y="0" width="17" height="20" xoffset="0" yoffset="6" xadvance="17" page="2" chnl="15" />
    <char id="438" x="45" y="226" width="14" height="15" xoffset="0" yoffset="11" xadvance="14" page="2" chnl="15" />
    <char id="439" x="100" y="218" width="17" height="25" xoffset="0" yoffset="6" xadvance="17" page="0" chnl="15" />
    <char id="440" x="118" y="218" width="17" height="25" xoffset="0" yoffset="6" xadvance="17" page="0" chnl="15" />
    <char id="441" x="224" y="63" width="15" height="20" xoffset="0" yoffset="11" xadvance="15" page="2" chnl="15" />
    <char id="442" x="134" y="42" width="15" height="20" xoffset="0" yoffset="11" xadvance="15" page="2" chnl="15" />
    <char id="443" x="201" y="84" width="14" height="20" xoffset="0" yoffset="6" xadvance="15" page="2" chnl="15" />
    <char id="444" x="32" y="63" width="15" height="20" xoffset="0" yoffset="6" xadvance="15" page="2" chnl="15" />
    <char id="445" x="157" y="224" width="12" height="15" xoffset="0" yoffset="11" xadvance="12" page="2" chnl="15" />
    <char id="446" x="130" y="126" width="13" height="20" xoffset="0" yoffset="6" xadvance="13" page="2" chnl="15" />
    <char id="447" x="240" y="105" width="14" height="20" xoffset="1" yoffset="11" xadvance="15" page="2" chnl="15" />
    <char id="448" x="252" y="108" width="3" height="20" xoffset="2" yoffset="6" xadvance="7" page="0" chnl="15" />
    <char id="449" x="102" y="168" width="7" height="20" xoffset="2" yoffset="6" xadvance="11" page="2" chnl="15" />
    <char id="450" x="150" y="105" width="14" height="20" xoffset="1" yoffset="6" xadvance="16" page="2" chnl="15" />
    <char id="451" x="136" y="168" width="4" height="20" xoffset="2" yoffset="6" xadvance="8" page="2" chnl="15" />
    <char id="452" x="60" y="0" width="35" height="26" xoffset="1" yoffset="0" xadvance="36" page="0" chnl="15" />
    <char id="453" x="188" y="123" width="32" height="20" xoffset="1" yoffset="6" xadvance="33" page="1" chnl="15" />
    <char id="454" x="90" y="147" width="28" height="20" xoffset="0" yoffset="6" xadvance="28" page="1" chnl="15" />
    <char id="455" x="201" y="144" width="26" height="20" xoffset="1" yoffset="6" xadvance="29" page="1" chnl="15" />
    <char id="456" x="122" y="189" width="21" height="25" xoffset="1" yoffset="6" xadvance="22" page="0" chnl="15" />
    <char id="457" x="120" y="26" width="10" height="25" xoffset="1" yoffset="6" xadvance="12" page="1" chnl="15" />
    <char id="458" x="0" y="148" width="31" height="20" xoffset="1" yoffset="6" xadvance="33" page="1" chnl="15" />
    <char id="459" x="75" y="194" width="24" height="25" xoffset="1" yoffset="6" xadvance="26" page="0" chnl="15" />
    <char id="460" x="21" y="221" width="19" height="25" xoffset="1" yoffset="6" xadvance="21" page="0" chnl="15" />
    <char id="461" x="228" y="27" width="19" height="26" xoffset="-1" yoffset="0" xadvance="18" page="0" chnl="15" />
    <char id="462" x="61" y="125" width="14" height="21" xoffset="0" yoffset="5" xadvance="15" page="1" chnl="15" />
    <char id="463" x="245" y="135" width="10" height="26" xoffset="-1" yoffset="0" xadvance="8" page="0" chnl="15" />
    <char id="464" x="132" y="125" width="9" height="21" xoffset="-1" yoffset="5" xadvance="6" page="1" chnl="15" />
    <char id="465" x="180" y="0" width="20" height="26" xoffset="1" yoffset="0" xadvance="21" page="0" chnl="15" />
    <char id="466" x="0" y="126" width="15" height="21" xoffset="0" yoffset="5" xadvance="15" page="1" chnl="15" />
    <char id="467" x="126" y="108" width="17" height="26" xoffset="1" yoffset="0" xadvance="19" page="0" chnl="15" />
    <char id="468" x="104" y="125" width="13" height="21" xoffset="1" yoffset="5" xadvance="15" page="1" chnl="15" />
    <char id="469" x="108" y="108" width="17" height="26" xoffset="1" yoffset="0" xadvance="19" page="0" chnl="15" />
    <char id="470" x="45" y="102" width="13" height="23" xoffset="1" yoffset="3" xadvance="15" page="1" chnl="15" />
    <char id="471" x="72" y="111" width="17" height="26" xoffset="1" yoffset="0" xadvance="19" page="0" chnl="15" />
    <char id="472" x="15" y="26" width="13" height="25" xoffset="1" yoffset="1" xadvance="15" page="1" chnl="15" />
    <char id="473" x="54" y="113" width="17" height="26" xoffset="1" yoffset="0" xadvance="19" page="0" chnl="15" />
    <char id="474" x="57" y="26" width="13" height="25" xoffset="1" yoffset="1" xadvance="15" page="1" chnl="15" />
    <char id="475" x="36" y="113" width="17" height="26" xoffset="1" yoffset="0" xadvance="19" page="0" chnl="15" />
    <char id="476" x="29" y="26" width="13" height="25" xoffset="1" yoffset="1" xadvance="15" page="1" chnl="15" />
    <char id="477" x="180" y="207" width="15" height="15" xoffset="0" yoffset="11" xadvance="15" page="2" chnl="15" />
    <char id="478" x="80" y="54" width="19" height="26" xoffset="-1" yoffset="0" xadvance="18" page="0" chnl="15" />
    <char id="479" x="239" y="77" width="14" height="23" xoffset="0" yoffset="3" xadvance="15" page="1" chnl="15" />
    <char id="480" x="60" y="55" width="19" height="26" xoffset="-1" yoffset="0" xadvance="18" page="0" chnl="15" />
    <char id="481" x="30" y="102" width="14" height="23" xoffset="0" yoffset="3" xadvance="15" page="1" chnl="15" />
    <char id="482" x="0" y="52" width="27" height="24" xoffset="-1" yoffset="2" xadvance="27" page="1" chnl="15" />
    <char id="483" x="166" y="168" width="24" height="19" xoffset="0" yoffset="7" xadvance="24" page="2" chnl="15" />
    <char id="484" x="134" y="189" width="20" height="20" xoffset="1" yoffset="6" xadvance="21" page="1" chnl="15" />
    <char id="485" x="144" y="63" width="15" height="20" xoffset="0" yoffset="11" xadvance="15" page="2" chnl="15" />
    <char id="486" x="40" y="57" width="19" height="26" xoffset="1" yoffset="0" xadvance="21" page="0" chnl="15" />
    <char id="487" x="194" y="0" width="14" height="25" xoffset="0" yoffset="6" xadvance="15" page="1" chnl="15" />
    <char id="488" x="190" y="81" width="18" height="26" xoffset="1" yoffset="0" xadvance="18" page="0" chnl="15" />
    <char id="489" x="0" y="194" width="13" height="26" xoffset="1" yoffset="0" xadvance="14" page="0" chnl="15" />
    <char id="490" x="186" y="189" width="20" height="25" xoffset="1" yoffset="6" xadvance="21" page="0" chnl="15" />
    <char id="491" x="128" y="63" width="15" height="20" xoffset="0" yoffset="11" xadvance="15" page="2" chnl="15" />
    <char id="492" x="18" y="0" width="20" height="29" xoffset="1" yoffset="2" xadvance="21" page="0" chnl="15" />
    <char id="493" x="105" y="77" width="15" height="24" xoffset="0" yoffset="7" xadvance="15" page="1" chnl="15" />
    <char id="494" x="0" y="0" width="17" height="31" xoffset="0" yoffset="0" xadvance="17" page="0" chnl="15" />
    <char id="495" x="71" y="0" width="15" height="25" xoffset="0" yoffset="6" xadvance="15" page="1" chnl="15" />
    <char id="496" x="131" y="26" width="10" height="25" xoffset="-2" yoffset="6" xadvance="6" page="1" chnl="15" />
    <char id="497" x="152" y="125" width="35" height="20" xoffset="1" yoffset="6" xadvance="36" page="1" chnl="15" />
    <char id="498" x="221" y="123" width="32" height="20" xoffset="1" yoffset="6" xadvance="33" page="1" chnl="15" />
    <char id="499" x="32" y="148" width="28" height="20" xoffset="0" yoffset="6" xadvance="28" page="1" chnl="15" />
    <char id="500" x="200" y="54" width="19" height="26" xoffset="1" yoffset="0" xadvance="21" page="0" chnl="15" />
    <char id="501" x="164" y="0" width="14" height="25" xoffset="0" yoffset="6" xadvance="15" page="1" chnl="15" />
    <char id="502" x="147" y="147" width="26" height="20" xoffset="1" yoffset="6" xadvance="28" page="1" chnl="15" />
    <char id="503" x="54" y="0" width="16" height="25" xoffset="1" yoffset="6" xadvance="17" page="1" chnl="15" />
    <char id="504" x="0" y="140" width="17" height="26" xoffset="1" yoffset="0" xadvance="19" page="0" chnl="15" />
    <char id="505" x="56" y="147" width="13" height="20" xoffset="1" yoffset="6" xadvance="15" page="2" chnl="15" />
    <char id="506" x="20" y="59" width="19" height="26" xoffset="-1" yoffset="0" xadvance="18" page="0" chnl="15" />
    <char id="507" x="166" y="162" width="14" height="26" xoffset="0" yoffset="0" xadvance="15" page="0" chnl="15" />
    <char id="508" x="125" y="0" width="27" height="26" xoffset="-1" yoffset="0" xadvance="27" page="0" chnl="15" />
    <char id="509" x="0" y="169" width="24" height="20" xoffset="0" yoffset="6" xadvance="24" page="1" chnl="15" />
    <char id="510" x="39" y="0" width="20" height="27" xoffset="0" yoffset="0" xadvance="21" page="0" chnl="15" />
    <char id="511" x="240" y="101" width="15" height="21" xoffset="1" yoffset="6" xadvance="17" page="1" chnl="15" />
    <char id="512" x="180" y="54" width="19" height="26" xoffset="-1" yoffset="0" xadvance="18" page="0" chnl="15" />
    <char id="513" x="186" y="84" width="14" height="20" xoffset="0" yoffset="6" xadvance="15" page="2" chnl="15" />
    <char id="514" x="160" y="54" width="19" height="26" xoffset="-1" yoffset="0" xadvance="18" page="0" chnl="15" />
    <char id="515" x="45" y="126" width="14" height="20" xoffset="0" yoffset="6" xadvance="15" page="2" chnl="15" />
    <char id="516" x="239" y="54" width="16" height="26" xoffset="1" yoffset="0" xadvance="18" page="0" chnl="15" />
    <char id="517" x="176" y="63" width="15" height="20" xoffset="0" yoffset="6" xadvance="15" page="2" chnl="15" />
    <char id="518" x="102" y="163" width="16" height="26" xoffset="1" yoffset="0" xadvance="18" page="0" chnl="15" />
    <char id="519" x="192" y="63" width="15" height="20" xoffset="0" yoffset="6" xadvance="15" page="2" chnl="15" />
    <char id="520" x="243" y="0" width="11" height="26" xoffset="-3" yoffset="0" xadvance="8" page="0" chnl="15" />
    <char id="521" x="203" y="147" width="10" height="20" xoffset="-3" yoffset="6" xadvance="6" page="2" chnl="15" />
    <char id="522" x="36" y="194" width="10" height="26" xoffset="-1" yoffset="0" xadvance="8" page="0" chnl="15" />
    <char id="523" x="57" y="168" width="8" height="20" xoffset="-1" yoffset="6" xadvance="6" page="2" chnl="15" />
    <char id="524" x="105" y="27" width="20" height="26" xoffset="1" yoffset="0" xadvance="21" page="0" chnl="15" />
    <char id="525" x="64" y="63" width="15" height="20" xoffset="0" yoffset="6" xadvance="15" page="2" chnl="15" />
    <char id="526" x="84" y="27" width="20" height="26" xoffset="1" yoffset="0" xadvance="21" page="0" chnl="15" />
    <char id="527" x="0" y="84" width="15" height="20" xoffset="0" yoffset="6" xadvance="15" page="2" chnl="15" />
    <char id="528" x="209" y="81" width="18" height="26" xoffset="2" yoffset="0" xadvance="20" page="0" chnl="15" />
    <char id="529" x="179" y="147" width="11" height="20" xoffset="-1" yoffset="6" xadvance="9" page="2" chnl="15" />
    <char id="530" x="0" y="86" width="18" height="26" xoffset="2" yoffset="0" xadvance="20" page="0" chnl="15" />
    <char id="531" x="10" y="168" width="9" height="20" xoffset="1" yoffset="6" xadvance="9" page="2" chnl="15" />
    <char id="532" x="90" y="109" width="17" height="26" xoffset="1" yoffset="0" xadvance="19" page="0" chnl="15" />
    <char id="533" x="14" y="147" width="13" height="20" xoffset="1" yoffset="6" xadvance="15" page="2" chnl="15" />
    <char id="534" x="18" y="113" width="17" height="26" xoffset="1" yoffset="0" xadvance="19" page="0" chnl="15" />
    <char id="535" x="0" y="147" width="13" height="20" xoffset="1" yoffset="6" xadvance="15" page="2" chnl="15" />
    <char id="536" x="85" y="165" width="16" height="26" xoffset="1" yoffset="6" xadvance="18" page="0" chnl="15" />
    <char id="537" x="16" y="126" width="14" height="21" xoffset="0" yoffset="11" xadvance="14" page="1" chnl="15" />
    <char id="538" x="51" y="167" width="16" height="26" xoffset="0" yoffset="6" xadvance="16" page="0" chnl="15" />
    <char id="539" x="47" y="194" width="8" height="26" xoffset="0" yoffset="6" xadvance="7" page="0" chnl="15" />
    <char id="540" x="43" y="26" width="13" height="25" xoffset="1" yoffset="6" xadvance="15" page="1" chnl="15" />
    <char id="541" x="140" y="147" width="12" height="20" xoffset="0" yoffset="11" xadvance="12" page="2" chnl="15" />
    <char id="542" x="90" y="136" width="17" height="26" xoffset="1" yoffset="0" xadvance="19" page="0" chnl="15" />
    <char id="543" x="211" y="162" width="13" height="26" xoffset="1" yoffset="0" xadvance="15" page="0" chnl="15" />
    <char id="544" x="226" y="215" width="17" height="25" xoffset="1" yoffset="6" xadvance="19" page="0" chnl="15" />
    <char id="545" x="41" y="221" width="19" height="25" xoffset="0" yoffset="6" xadvance="18" page="0" chnl="15" />
    <char id="546" x="0" y="42" width="16" height="20" xoffset="0" yoffset="6" xadvance="16" page="2" chnl="15" />
    <char id="547" x="208" y="63" width="15" height="20" xoffset="0" yoffset="6" xadvance="15" page="2" chnl="15" />
    <char id="548" x="157" y="77" width="17" height="23" xoffset="0" yoffset="6" xadvance="17" page="1" chnl="15" />
    <char id="549" x="184" y="188" width="14" height="18" xoffset="0" yoffset="11" xadvance="14" page="2" chnl="15" />
    <char id="550" x="91" y="52" width="19" height="24" xoffset="-1" yoffset="2" xadvance="18" page="1" chnl="15" />
    <char id="551" x="169" y="188" width="14" height="18" xoffset="0" yoffset="8" xadvance="15" page="2" chnl="15" />
    <char id="552" x="68" y="167" width="16" height="26" xoffset="1" yoffset="6" xadvance="18" page="0" chnl="15" />
    <char id="553" x="224" y="101" width="15" height="21" xoffset="0" yoffset="11" xadvance="15" page="1" chnl="15" />
    <char id="554" x="147" y="27" width="20" height="26" xoffset="1" yoffset="0" xadvance="21" page="0" chnl="15" />
    <char id="555" x="207" y="77" width="15" height="23" xoffset="0" yoffset="3" xadvance="15" page="1" chnl="15" />
    <char id="556" x="126" y="27" width="20" height="26" xoffset="1" yoffset="0" xadvance="21" page="0" chnl="15" />
    <char id="557" x="191" y="77" width="15" height="23" xoffset="0" yoffset="3" xadvance="15" page="1" chnl="15" />
    <char id="558" x="70" y="52" width="20" height="24" xoffset="1" yoffset="2" xadvance="21" page="1" chnl="15" />
    <char id="559" x="122" y="189" width="15" height="18" xoffset="0" yoffset="8" xadvance="15" page="2" chnl="15" />
    <char id="560" x="42" y="28" width="20" height="26" xoffset="1" yoffset="0" xadvance="21" page="0" chnl="15" />
    <char id="561" x="223" y="77" width="15" height="23" xoffset="0" yoffset="3" xadvance="15" page="1" chnl="15" />
    <char id="562" x="229" y="52" width="18" height="24" xoffset="0" yoffset="2" xadvance="18" page="1" chnl="15" />
    <char id="563" x="121" y="77" width="14" height="24" xoffset="0" yoffset="7" xadvance="14" page="1" chnl="15" />
    <char id="564" x="85" y="26" width="12" height="25" xoffset="-2" yoffset="6" xadvance="9" page="1" chnl="15" />
    <char id="565" x="38" y="232" width="18" height="20" xoffset="1" yoffset="11" xadvance="18" page="1" chnl="15" />
    <char id="566" x="166" y="147" width="12" height="20" xoffset="-1" yoffset="6" xadvance="10" page="2" chnl="15" />
    <char id="567" x="248" y="52" width="7" height="20" xoffset="-2" yoffset="11" xadvance="6" page="1" chnl="15" />
    <char id="568" x="228" y="144" width="24" height="20" xoffset="0" yoffset="6" xadvance="24" page="1" chnl="15" />
    <char id="569" x="25" y="169" width="24" height="20" xoffset="0" yoffset="11" xadvance="24" page="1" chnl="15" />
    <char id="570" x="105" y="102" width="20" height="22" xoffset="-1" yoffset="5" xadvance="18" page="1" chnl="15" />
    <char id="571" x="126" y="102" width="19" height="22" xoffset="1" yoffset="5" xadvance="20" page="1" chnl="15" />
    <char id="572" x="179" y="0" width="14" height="25" xoffset="0" yoffset="6" xadvance="14" page="1" chnl="15" />
    <char id="573" x="17" y="42" width="16" height="20" xoffset="-1" yoffset="6" xadvance="15" page="2" chnl="15" />
    <char id="574" x="146" y="102" width="17" height="22" xoffset="0" yoffset="5" xadvance="17" page="1" chnl="15" />
    <char id="575" x="144" y="126" width="13" height="20" xoffset="1" yoffset="11" xadvance="14" page="2" chnl="15" />
    <char id="576" x="15" y="126" width="14" height="20" xoffset="0" yoffset="11" xadvance="14" page="2" chnl="15" />
    <char id="577" x="69" y="21" width="16" height="20" xoffset="0" yoffset="6" xadvance="16" page="2" chnl="15" />
    <char id="578" x="130" y="224" width="13" height="15" xoffset="-1" yoffset="11" xadvance="12" page="2" chnl="15" />
    <char id="579" x="76" y="232" width="18" height="20" xoffset="-1" yoffset="6" xadvance="18" page="1" chnl="15" />
    <char id="580" x="0" y="211" width="20" height="20" xoffset="0" yoffset="6" xadvance="20" page="1" chnl="15" />
    <char id="581" x="95" y="232" width="18" height="20" xoffset="0" yoffset="6" xadvance="18" page="1" chnl="15" />
    <char id="582" x="164" y="101" width="16" height="22" xoffset="1" yoffset="5" xadvance="18" page="1" chnl="15" />
    <char id="583" x="103" y="0" width="15" height="25" xoffset="0" yoffset="6" xadvance="15" page="1" chnl="15" />
    <char id="584" x="240" y="63" width="15" height="20" xoffset="0" yoffset="6" xadvance="14" page="2" chnl="15" />
    <char id="585" x="200" y="26" width="8" height="25" xoffset="-2" yoffset="6" xadvance="6" page="1" chnl="15" />
    <char id="586" x="207" y="189" width="20" height="25" xoffset="1" yoffset="6" xadvance="20" page="0" chnl="15" />
    <char id="587" x="224" y="228" width="17" height="20" xoffset="0" yoffset="11" xadvance="15" page="1" chnl="15" />
    <char id="588" x="46" y="190" width="21" height="20" xoffset="-1" yoffset="6" xadvance="20" page="1" chnl="15" />
    <char id="589" x="244" y="207" width="11" height="15" xoffset="-1" yoffset="11" xadvance="9" page="2" chnl="15" />
    <char id="590" x="82" y="211" width="19" height="20" xoffset="-1" yoffset="6" xadvance="18" page="1" chnl="15" />
    <char id="591" x="102" y="42" width="15" height="20" xoffset="0" yoffset="11" xadvance="14" page="2" chnl="15" />
  </chars>
  <kernings count="91">
    <kerning first="32" second="65" amount="-2" />
    <kerning first="32" second="84" amount="-1" />
    <kerning first="32" second="89" amount="-1" />
    <kerning first="121" second="46" amount="-2" />
    <kerning first="121" second="44" amount="-2" />
    <kerning first="119" second="46" amount="-2" />
    <kerning first="119" second="44" amount="-2" />
    <kerning first="118" second="46" amount="-2" />
    <kerning first="118" second="44" amount="-2" />
    <kerning first="114" second="46" amount="-2" />
    <kerning first="49" second="49" amount="-2" />
    <kerning first="65" second="32" amount="-2" />
    <kerning first="65" second="84" amount="-2" />
    <kerning first="65" second="86" amount="-2" />
    <kerning first="65" second="87" amount="-1" />
    <kerning first="65" second="89" amount="-2" />
    <kerning first="65" second="118" amount="-1" />
    <kerning first="65" second="119" amount="-1" />
    <kerning first="65" second="121" amount="-1" />
    <kerning first="114" second="44" amount="-2" />
    <kerning first="70" second="44" amount="-3" />
    <kerning first="70" second="46" amount="-3" />
    <kerning first="70" second="65" amount="-2" />
    <kerning first="76" second="32" amount="-1" />
    <kerning first="76" second="84" amount="-2" />
    <kerning first="76" second="86" amount="-2" />
    <kerning first="76" second="87" amount="-2" />
    <kerning first="76" second="89" amount="-2" />
    <kerning first="76" second="121" amount="-1" />
    <kerning first="102" second="102" amount="-1" />
    <kerning first="80" second="32" amount="-1" />
    <kerning first="80" second="44" amount="-4" />
    <kerning first="80" second="46" amount="-4" />
    <kerning first="80" second="65" amount="-2" />
    <kerning first="82" second="84" amount="-1" />
    <kerning first="82" second="86" amount="-1" />
    <kerning first="82" second="87" amount="-1" />
    <kerning first="82" second="89" amount="-1" />
    <kerning first="84" second="32" amount="-1" />
    <kerning first="84" second="44" amount="-3" />
    <kerning first="84" second="45" amount="-2" />
    <kerning first="84" second="46" amount="-3" />
    <kerning first="84" second="58" amount="-3" />
    <kerning first="89" second="118" amount="-2" />
    <kerning first="84" second="65" amount="-2" />
    <kerning first="84" second="79" amount="-1" />
    <kerning first="84" second="97" amount="-3" />
    <kerning first="84" second="99" amount="-3" />
    <kerning first="84" second="101" amount="-3" />
    <kerning first="84" second="105" amount="-1" />
    <kerning first="84" second="111" amount="-3" />
    <kerning first="84" second="114" amount="-1" />
    <kerning first="84" second="115" amount="-3" />
    <kerning first="84" second="117" amount="-1" />
    <kerning first="84" second="119" amount="-2" />
    <kerning first="84" second="121" amount="-2" />
    <kerning first="86" second="44" amount="-3" />
    <kerning first="86" second="45" amount="-2" />
    <kerning first="86" second="46" amount="-3" />
    <kerning first="86" second="58" amount="-1" />
    <kerning first="89" second="117" amount="-2" />
    <kerning first="86" second="65" amount="-2" />
    <kerning first="86" second="97" amount="-2" />
    <kerning first="86" second="101" amount="-2" />
    <kerning first="86" second="105" amount="-1" />
    <kerning first="86" second="111" amount="-2" />
    <kerning first="86" second="114" amount="-1" />
    <kerning first="86" second="117" amount="-1" />
    <kerning first="86" second="121" amount="-1" />
    <kerning first="87" second="44" amount="-2" />
    <kerning first="87" second="45" amount="-1" />
    <kerning first="87" second="46" amount="-2" />
    <kerning first="87" second="58" amount="-1" />
    <kerning first="89" second="113" amount="-3" />
    <kerning first="87" second="65" amount="-1" />
    <kerning first="87" second="97" amount="-1" />
    <kerning first="87" second="101" amount="-1" />
    <kerning first="89" second="112" amount="-2" />
    <kerning first="87" second="111" amount="-1" />
    <kerning first="87" second="114" amount="-1" />
    <kerning first="87" second="117" amount="-1" />
    <kerning first="89" second="111" amount="-3" />
    <kerning first="89" second="32" amount="-1" />
    <kerning first="89" second="44" amount="-4" />
    <kerning first="89" second="45" amount="-3" />
    <kerning first="89" second="46" amount="-4" />
    <kerning first="89" second="58" amount="-2" />
    <kerning first="89" second="105" amount="-1" />
    <kerning first="89" second="65" amount="-2" />
    <kerning first="89" second="97" amount="-2" />
    <kerning first="89" second="101" amount="-3" />
  </kernings>
</font>
