<?xml version="1.0"?>
<font>
  <info face="GALACTIC VANGUARDIAN NCV" size="32" bold="0" italic="0" charset="" unicode="1" stretchH="100" smooth="1" aa="1" padding="0,0,0,0" spacing="1,1" outline="0"/>
  <common lineHeight="31" base="25" scaleW="256" scaleH="256" pages="3" packed="0" alphaChnl="0" redChnl="4" greenChnl="4" blueChnl="4"/>
  <pages>
    <page id="0" file="galacticfont_0.png" />
    <page id="1" file="galacticfont_1.png" />
    <page id="2" file="galacticfont_2.png" />
  </pages>
  <chars count="193">
    <char id="32" x="105" y="27" width="3" height="1" xoffset="-1" yoffset="30" xadvance="8" page="0" chnl="15" />
    <char id="33" x="60" y="29" width="28" height="24" xoffset="1" yoffset="1" xadvance="29" page="0" chnl="15" />
    <char id="34" x="89" y="29" width="28" height="24" xoffset="1" yoffset="1" xadvance="29" page="0" chnl="15" />
    <char id="35" x="118" y="25" width="28" height="24" xoffset="1" yoffset="1" xadvance="29" page="0" chnl="15" />
    <char id="36" x="147" y="25" width="28" height="24" xoffset="1" yoffset="1" xadvance="29" page="0" chnl="15" />
    <char id="37" x="176" y="25" width="28" height="24" xoffset="1" yoffset="1" xadvance="29" page="0" chnl="15" />
    <char id="38" x="78" y="225" width="24" height="24" xoffset="1" yoffset="1" xadvance="26" page="1" chnl="15" />
    <char id="39" x="0" y="55" width="28" height="24" xoffset="1" yoffset="1" xadvance="29" page="0" chnl="15" />
    <char id="40" x="29" y="55" width="28" height="24" xoffset="1" yoffset="1" xadvance="29" page="0" chnl="15" />
    <char id="41" x="58" y="55" width="28" height="24" xoffset="1" yoffset="1" xadvance="29" page="0" chnl="15" />
    <char id="42" x="87" y="54" width="28" height="24" xoffset="1" yoffset="1" xadvance="29" page="0" chnl="15" />
    <char id="43" x="137" y="150" width="25" height="24" xoffset="1" yoffset="1" xadvance="26" page="1" chnl="15" />
    <char id="44" x="33" y="0" width="9" height="9" xoffset="0" yoffset="19" xadvance="9" page="2" chnl="15" />
    <char id="45" x="43" y="0" width="11" height="6" xoffset="1" yoffset="10" xadvance="13" page="2" chnl="15" />
    <char id="46" x="55" y="0" width="9" height="6" xoffset="0" yoffset="19" xadvance="9" page="2" chnl="15" />
    <char id="47" x="0" y="80" width="28" height="24" xoffset="1" yoffset="1" xadvance="29" page="0" chnl="15" />
    <char id="48" x="215" y="150" width="25" height="24" xoffset="1" yoffset="1" xadvance="27" page="1" chnl="15" />
    <char id="49" x="241" y="150" width="12" height="24" xoffset="1" yoffset="1" xadvance="14" page="1" chnl="15" />
    <char id="50" x="232" y="100" width="23" height="24" xoffset="1" yoffset="1" xadvance="25" page="0" chnl="15" />
    <char id="51" x="232" y="75" width="23" height="24" xoffset="1" yoffset="1" xadvance="25" page="0" chnl="15" />
    <char id="52" x="145" y="75" width="28" height="24" xoffset="0" yoffset="1" xadvance="28" page="0" chnl="15" />
    <char id="53" x="232" y="50" width="23" height="24" xoffset="1" yoffset="1" xadvance="25" page="0" chnl="15" />
    <char id="54" x="153" y="225" width="24" height="24" xoffset="1" yoffset="1" xadvance="26" page="1" chnl="15" />
    <char id="55" x="52" y="175" width="25" height="24" xoffset="1" yoffset="1" xadvance="26" page="1" chnl="15" />
    <char id="56" x="0" y="175" width="25" height="24" xoffset="1" yoffset="1" xadvance="27" page="1" chnl="15" />
    <char id="57" x="103" y="225" width="24" height="24" xoffset="1" yoffset="1" xadvance="26" page="1" chnl="15" />
    <char id="58" x="87" y="104" width="28" height="24" xoffset="1" yoffset="1" xadvance="29" page="0" chnl="15" />
    <char id="59" x="116" y="104" width="28" height="24" xoffset="1" yoffset="1" xadvance="29" page="0" chnl="15" />
    <char id="60" x="145" y="100" width="28" height="24" xoffset="1" yoffset="1" xadvance="29" page="0" chnl="15" />
    <char id="61" x="232" y="0" width="23" height="24" xoffset="1" yoffset="1" xadvance="25" page="1" chnl="15" />
    <char id="62" x="203" y="100" width="28" height="24" xoffset="1" yoffset="1" xadvance="29" page="0" chnl="15" />
    <char id="63" x="0" y="130" width="28" height="24" xoffset="1" yoffset="1" xadvance="29" page="0" chnl="15" />
    <char id="64" x="29" y="130" width="28" height="24" xoffset="1" yoffset="1" xadvance="30" page="0" chnl="15" />
    <char id="65" x="58" y="130" width="28" height="24" xoffset="0" yoffset="1" xadvance="28" page="0" chnl="15" />
    <char id="66" x="156" y="175" width="25" height="24" xoffset="1" yoffset="1" xadvance="27" page="1" chnl="15" />
    <char id="67" x="232" y="75" width="22" height="24" xoffset="1" yoffset="1" xadvance="23" page="1" chnl="15" />
    <char id="68" x="208" y="175" width="25" height="24" xoffset="1" yoffset="1" xadvance="27" page="1" chnl="15" />
    <char id="69" x="228" y="225" width="22" height="24" xoffset="1" yoffset="1" xadvance="24" page="1" chnl="15" />
    <char id="70" x="232" y="100" width="22" height="24" xoffset="1" yoffset="1" xadvance="24" page="1" chnl="15" />
    <char id="71" x="26" y="200" width="25" height="24" xoffset="1" yoffset="1" xadvance="27" page="1" chnl="15" />
    <char id="72" x="52" y="200" width="25" height="24" xoffset="1" yoffset="1" xadvance="27" page="1" chnl="15" />
    <char id="73" x="23" y="0" width="9" height="24" xoffset="1" yoffset="1" xadvance="11" page="2" chnl="15" />
    <char id="74" x="232" y="25" width="23" height="24" xoffset="1" yoffset="1" xadvance="25" page="1" chnl="15" />
    <char id="75" x="57" y="150" width="26" height="24" xoffset="1" yoffset="1" xadvance="26" page="1" chnl="15" />
    <char id="76" x="234" y="175" width="20" height="24" xoffset="1" yoffset="1" xadvance="21" page="1" chnl="15" />
    <char id="77" x="224" y="0" width="31" height="24" xoffset="1" yoffset="1" xadvance="33" page="0" chnl="15" />
    <char id="78" x="130" y="200" width="25" height="24" xoffset="1" yoffset="1" xadvance="27" page="1" chnl="15" />
    <char id="79" x="156" y="200" width="25" height="24" xoffset="1" yoffset="1" xadvance="27" page="1" chnl="15" />
    <char id="80" x="182" y="200" width="25" height="24" xoffset="1" yoffset="1" xadvance="26" page="1" chnl="15" />
    <char id="81" x="52" y="0" width="26" height="28" xoffset="1" yoffset="1" xadvance="28" page="0" chnl="15" />
    <char id="82" x="26" y="225" width="25" height="24" xoffset="1" yoffset="1" xadvance="27" page="1" chnl="15" />
    <char id="83" x="232" y="225" width="23" height="24" xoffset="1" yoffset="1" xadvance="25" page="0" chnl="15" />
    <char id="84" x="178" y="225" width="24" height="24" xoffset="1" yoffset="1" xadvance="26" page="1" chnl="15" />
    <char id="85" x="0" y="225" width="25" height="24" xoffset="1" yoffset="1" xadvance="27" page="1" chnl="15" />
    <char id="86" x="29" y="180" width="28" height="24" xoffset="0" yoffset="1" xadvance="28" page="0" chnl="15" />
    <char id="87" x="105" y="0" width="41" height="24" xoffset="0" yoffset="1" xadvance="41" page="0" chnl="15" />
    <char id="88" x="58" y="180" width="28" height="24" xoffset="0" yoffset="1" xadvance="27" page="0" chnl="15" />
    <char id="89" x="0" y="30" width="30" height="24" xoffset="0" yoffset="1" xadvance="30" page="0" chnl="15" />
    <char id="90" x="203" y="225" width="24" height="24" xoffset="0" yoffset="1" xadvance="24" page="1" chnl="15" />
    <char id="91" x="0" y="0" width="22" height="24" xoffset="1" yoffset="1" xadvance="23" page="2" chnl="15" />
    <char id="92" x="79" y="0" width="25" height="28" xoffset="1" yoffset="1" xadvance="27" page="0" chnl="15" />
    <char id="93" x="232" y="175" width="23" height="24" xoffset="1" yoffset="1" xadvance="24" page="0" chnl="15" />
    <char id="94" x="174" y="175" width="28" height="24" xoffset="1" yoffset="1" xadvance="29" page="0" chnl="15" />
    <char id="95" x="145" y="250" width="19" height="5" xoffset="0" yoffset="26" xadvance="20" page="0" chnl="15" />
    <char id="96" x="0" y="205" width="28" height="24" xoffset="1" yoffset="1" xadvance="29" page="0" chnl="15" />
    <char id="97" x="29" y="205" width="28" height="24" xoffset="0" yoffset="1" xadvance="28" page="0" chnl="15" />
    <char id="98" x="78" y="175" width="25" height="24" xoffset="1" yoffset="1" xadvance="27" page="1" chnl="15" />
    <char id="99" x="130" y="175" width="25" height="24" xoffset="1" yoffset="1" xadvance="27" page="1" chnl="15" />
    <char id="100" x="208" y="200" width="25" height="24" xoffset="1" yoffset="1" xadvance="27" page="1" chnl="15" />
    <char id="101" x="232" y="200" width="23" height="24" xoffset="1" yoffset="1" xadvance="25" page="0" chnl="15" />
    <char id="102" x="232" y="50" width="23" height="24" xoffset="1" yoffset="1" xadvance="24" page="1" chnl="15" />
    <char id="103" x="0" y="200" width="25" height="24" xoffset="1" yoffset="1" xadvance="27" page="1" chnl="15" />
    <char id="104" x="78" y="200" width="25" height="24" xoffset="1" yoffset="1" xadvance="27" page="1" chnl="15" />
    <char id="105" x="234" y="200" width="17" height="24" xoffset="1" yoffset="1" xadvance="19" page="1" chnl="15" />
    <char id="106" x="232" y="150" width="23" height="24" xoffset="1" yoffset="1" xadvance="25" page="0" chnl="15" />
    <char id="107" x="29" y="150" width="27" height="24" xoffset="1" yoffset="1" xadvance="28" page="1" chnl="15" />
    <char id="108" x="234" y="25" width="20" height="24" xoffset="1" yoffset="1" xadvance="21" page="0" chnl="15" />
    <char id="109" x="186" y="0" width="37" height="24" xoffset="1" yoffset="1" xadvance="39" page="0" chnl="15" />
    <char id="110" x="52" y="225" width="25" height="24" xoffset="1" yoffset="1" xadvance="26" page="1" chnl="15" />
    <char id="111" x="111" y="150" width="25" height="24" xoffset="1" yoffset="1" xadvance="27" page="1" chnl="15" />
    <char id="112" x="26" y="175" width="25" height="24" xoffset="1" yoffset="1" xadvance="27" page="1" chnl="15" />
    <char id="113" x="26" y="0" width="25" height="29" xoffset="1" yoffset="1" xadvance="27" page="0" chnl="15" />
    <char id="114" x="163" y="150" width="25" height="24" xoffset="1" yoffset="1" xadvance="27" page="1" chnl="15" />
    <char id="115" x="232" y="125" width="23" height="24" xoffset="1" yoffset="1" xadvance="25" page="0" chnl="15" />
    <char id="116" x="128" y="225" width="24" height="24" xoffset="1" yoffset="1" xadvance="26" page="1" chnl="15" />
    <char id="117" x="189" y="150" width="25" height="24" xoffset="1" yoffset="1" xadvance="26" page="1" chnl="15" />
    <char id="118" x="104" y="200" width="25" height="24" xoffset="1" yoffset="1" xadvance="27" page="1" chnl="15" />
    <char id="119" x="147" y="0" width="38" height="24" xoffset="1" yoffset="1" xadvance="39" page="0" chnl="15" />
    <char id="120" x="104" y="175" width="25" height="24" xoffset="1" yoffset="1" xadvance="27" page="1" chnl="15" />
    <char id="121" x="0" y="155" width="28" height="24" xoffset="0" yoffset="1" xadvance="28" page="0" chnl="15" />
    <char id="122" x="84" y="150" width="26" height="24" xoffset="0" yoffset="1" xadvance="26" page="1" chnl="15" />
    <char id="123" x="232" y="125" width="22" height="24" xoffset="1" yoffset="1" xadvance="23" page="1" chnl="15" />
    <char id="124" x="0" y="0" width="25" height="29" xoffset="1" yoffset="1" xadvance="27" page="0" chnl="15" />
    <char id="125" x="182" y="175" width="25" height="24" xoffset="1" yoffset="1" xadvance="27" page="1" chnl="15" />
    <char id="126" x="203" y="125" width="28" height="24" xoffset="1" yoffset="1" xadvance="29" page="0" chnl="15" />
    <char id="142" x="165" y="252" width="81" height="1" xoffset="-26" yoffset="30" xadvance="29" page="0" chnl="15" />
    <char id="158" x="165" y="250" width="84" height="1" xoffset="-27" yoffset="30" xadvance="29" page="0" chnl="15" />
    <char id="160" x="105" y="25" width="3" height="1" xoffset="-1" yoffset="30" xadvance="8" page="0" chnl="15" />
    <char id="161" x="87" y="204" width="28" height="24" xoffset="1" yoffset="1" xadvance="29" page="0" chnl="15" />
    <char id="162" x="145" y="150" width="28" height="24" xoffset="1" yoffset="1" xadvance="29" page="0" chnl="15" />
    <char id="163" x="58" y="205" width="28" height="24" xoffset="1" yoffset="1" xadvance="29" page="0" chnl="15" />
    <char id="164" x="0" y="180" width="28" height="24" xoffset="1" yoffset="1" xadvance="29" page="0" chnl="15" />
    <char id="165" x="87" y="129" width="28" height="24" xoffset="1" yoffset="1" xadvance="29" page="0" chnl="15" />
    <char id="166" x="29" y="80" width="28" height="24" xoffset="1" yoffset="1" xadvance="29" page="0" chnl="15" />
    <char id="167" x="116" y="54" width="28" height="24" xoffset="1" yoffset="1" xadvance="29" page="0" chnl="15" />
    <char id="168" x="145" y="200" width="28" height="24" xoffset="1" yoffset="1" xadvance="29" page="0" chnl="15" />
    <char id="169" x="116" y="204" width="28" height="24" xoffset="1" yoffset="1" xadvance="29" page="0" chnl="15" />
    <char id="170" x="203" y="175" width="28" height="24" xoffset="1" yoffset="1" xadvance="29" page="0" chnl="15" />
    <char id="171" x="145" y="175" width="28" height="24" xoffset="1" yoffset="1" xadvance="29" page="0" chnl="15" />
    <char id="172" x="116" y="179" width="28" height="24" xoffset="1" yoffset="1" xadvance="29" page="0" chnl="15" />
    <char id="173" x="87" y="179" width="28" height="24" xoffset="1" yoffset="1" xadvance="29" page="0" chnl="15" />
    <char id="174" x="203" y="150" width="28" height="24" xoffset="1" yoffset="1" xadvance="29" page="0" chnl="15" />
    <char id="175" x="174" y="150" width="28" height="24" xoffset="1" yoffset="1" xadvance="29" page="0" chnl="15" />
    <char id="176" x="116" y="154" width="28" height="24" xoffset="1" yoffset="1" xadvance="29" page="0" chnl="15" />
    <char id="177" x="87" y="154" width="28" height="24" xoffset="1" yoffset="1" xadvance="29" page="0" chnl="15" />
    <char id="178" x="58" y="155" width="28" height="24" xoffset="1" yoffset="1" xadvance="29" page="0" chnl="15" />
    <char id="179" x="29" y="155" width="28" height="24" xoffset="1" yoffset="1" xadvance="29" page="0" chnl="15" />
    <char id="180" x="174" y="125" width="28" height="24" xoffset="1" yoffset="1" xadvance="29" page="0" chnl="15" />
    <char id="181" x="145" y="125" width="28" height="24" xoffset="1" yoffset="1" xadvance="29" page="0" chnl="15" />
    <char id="182" x="116" y="129" width="28" height="24" xoffset="1" yoffset="1" xadvance="29" page="0" chnl="15" />
    <char id="183" x="31" y="30" width="28" height="24" xoffset="1" yoffset="1" xadvance="29" page="0" chnl="15" />
    <char id="184" x="174" y="100" width="28" height="24" xoffset="1" yoffset="1" xadvance="29" page="0" chnl="15" />
    <char id="185" x="58" y="105" width="28" height="24" xoffset="1" yoffset="1" xadvance="29" page="0" chnl="15" />
    <char id="186" x="203" y="75" width="28" height="24" xoffset="1" yoffset="1" xadvance="29" page="0" chnl="15" />
    <char id="187" x="174" y="75" width="28" height="24" xoffset="1" yoffset="1" xadvance="29" page="0" chnl="15" />
    <char id="188" x="116" y="79" width="28" height="24" xoffset="1" yoffset="1" xadvance="29" page="0" chnl="15" />
    <char id="189" x="87" y="79" width="28" height="24" xoffset="1" yoffset="1" xadvance="29" page="0" chnl="15" />
    <char id="190" x="58" y="80" width="28" height="24" xoffset="1" yoffset="1" xadvance="29" page="0" chnl="15" />
    <char id="191" x="203" y="50" width="28" height="24" xoffset="1" yoffset="1" xadvance="29" page="0" chnl="15" />
    <char id="192" x="174" y="50" width="28" height="24" xoffset="1" yoffset="1" xadvance="29" page="0" chnl="15" />
    <char id="193" x="145" y="50" width="28" height="24" xoffset="1" yoffset="1" xadvance="29" page="0" chnl="15" />
    <char id="194" x="205" y="25" width="28" height="24" xoffset="1" yoffset="1" xadvance="29" page="0" chnl="15" />
    <char id="195" x="174" y="200" width="28" height="24" xoffset="1" yoffset="1" xadvance="29" page="0" chnl="15" />
    <char id="196" x="203" y="200" width="28" height="24" xoffset="1" yoffset="1" xadvance="29" page="0" chnl="15" />
    <char id="197" x="0" y="230" width="28" height="24" xoffset="1" yoffset="1" xadvance="29" page="0" chnl="15" />
    <char id="198" x="29" y="230" width="28" height="24" xoffset="1" yoffset="1" xadvance="29" page="0" chnl="15" />
    <char id="199" x="58" y="230" width="28" height="24" xoffset="1" yoffset="1" xadvance="29" page="0" chnl="15" />
    <char id="200" x="87" y="229" width="28" height="24" xoffset="1" yoffset="1" xadvance="29" page="0" chnl="15" />
    <char id="201" x="116" y="229" width="28" height="24" xoffset="1" yoffset="1" xadvance="29" page="0" chnl="15" />
    <char id="202" x="145" y="225" width="28" height="24" xoffset="1" yoffset="1" xadvance="29" page="0" chnl="15" />
    <char id="203" x="174" y="225" width="28" height="24" xoffset="1" yoffset="1" xadvance="29" page="0" chnl="15" />
    <char id="204" x="203" y="225" width="28" height="24" xoffset="1" yoffset="1" xadvance="29" page="0" chnl="15" />
    <char id="205" x="174" y="0" width="28" height="24" xoffset="1" yoffset="1" xadvance="29" page="1" chnl="15" />
    <char id="206" x="0" y="150" width="28" height="24" xoffset="1" yoffset="1" xadvance="29" page="1" chnl="15" />
    <char id="207" x="203" y="125" width="28" height="24" xoffset="1" yoffset="1" xadvance="29" page="1" chnl="15" />
    <char id="208" x="174" y="125" width="28" height="24" xoffset="1" yoffset="1" xadvance="29" page="1" chnl="15" />
    <char id="209" x="116" y="125" width="28" height="24" xoffset="1" yoffset="1" xadvance="29" page="1" chnl="15" />
    <char id="210" x="87" y="125" width="28" height="24" xoffset="1" yoffset="1" xadvance="29" page="1" chnl="15" />
    <char id="211" x="58" y="125" width="28" height="24" xoffset="1" yoffset="1" xadvance="29" page="1" chnl="15" />
    <char id="212" x="29" y="125" width="28" height="24" xoffset="1" yoffset="1" xadvance="29" page="1" chnl="15" />
    <char id="213" x="0" y="125" width="28" height="24" xoffset="1" yoffset="1" xadvance="29" page="1" chnl="15" />
    <char id="214" x="203" y="100" width="28" height="24" xoffset="1" yoffset="1" xadvance="29" page="1" chnl="15" />
    <char id="215" x="174" y="100" width="28" height="24" xoffset="1" yoffset="1" xadvance="29" page="1" chnl="15" />
    <char id="216" x="116" y="100" width="28" height="24" xoffset="1" yoffset="1" xadvance="29" page="1" chnl="15" />
    <char id="217" x="87" y="100" width="28" height="24" xoffset="1" yoffset="1" xadvance="29" page="1" chnl="15" />
    <char id="218" x="58" y="100" width="28" height="24" xoffset="1" yoffset="1" xadvance="29" page="1" chnl="15" />
    <char id="219" x="145" y="75" width="28" height="24" xoffset="1" yoffset="1" xadvance="29" page="1" chnl="15" />
    <char id="220" x="29" y="75" width="28" height="24" xoffset="1" yoffset="1" xadvance="29" page="1" chnl="15" />
    <char id="221" x="0" y="75" width="28" height="24" xoffset="1" yoffset="1" xadvance="29" page="1" chnl="15" />
    <char id="222" x="203" y="50" width="28" height="24" xoffset="1" yoffset="1" xadvance="29" page="1" chnl="15" />
    <char id="223" x="116" y="25" width="28" height="24" xoffset="1" yoffset="1" xadvance="29" page="1" chnl="15" />
    <char id="224" x="174" y="50" width="28" height="24" xoffset="1" yoffset="1" xadvance="29" page="1" chnl="15" />
    <char id="225" x="29" y="50" width="28" height="24" xoffset="1" yoffset="1" xadvance="29" page="1" chnl="15" />
    <char id="226" x="0" y="50" width="28" height="24" xoffset="1" yoffset="1" xadvance="29" page="1" chnl="15" />
    <char id="227" x="174" y="25" width="28" height="24" xoffset="1" yoffset="1" xadvance="29" page="1" chnl="15" />
    <char id="228" x="145" y="25" width="28" height="24" xoffset="1" yoffset="1" xadvance="29" page="1" chnl="15" />
    <char id="229" x="87" y="25" width="28" height="24" xoffset="1" yoffset="1" xadvance="29" page="1" chnl="15" />
    <char id="230" x="145" y="100" width="28" height="24" xoffset="1" yoffset="1" xadvance="29" page="1" chnl="15" />
    <char id="231" x="29" y="105" width="28" height="24" xoffset="1" yoffset="1" xadvance="29" page="0" chnl="15" />
    <char id="232" x="145" y="125" width="28" height="24" xoffset="1" yoffset="1" xadvance="29" page="1" chnl="15" />
    <char id="233" x="29" y="100" width="28" height="24" xoffset="1" yoffset="1" xadvance="29" page="1" chnl="15" />
    <char id="234" x="0" y="100" width="28" height="24" xoffset="1" yoffset="1" xadvance="29" page="1" chnl="15" />
    <char id="235" x="203" y="75" width="28" height="24" xoffset="1" yoffset="1" xadvance="29" page="1" chnl="15" />
    <char id="236" x="174" y="75" width="28" height="24" xoffset="1" yoffset="1" xadvance="29" page="1" chnl="15" />
    <char id="237" x="116" y="75" width="28" height="24" xoffset="1" yoffset="1" xadvance="29" page="1" chnl="15" />
    <char id="238" x="87" y="75" width="28" height="24" xoffset="1" yoffset="1" xadvance="29" page="1" chnl="15" />
    <char id="239" x="58" y="75" width="28" height="24" xoffset="1" yoffset="1" xadvance="29" page="1" chnl="15" />
    <char id="240" x="145" y="50" width="28" height="24" xoffset="1" yoffset="1" xadvance="29" page="1" chnl="15" />
    <char id="241" x="116" y="50" width="28" height="24" xoffset="1" yoffset="1" xadvance="29" page="1" chnl="15" />
    <char id="242" x="87" y="50" width="28" height="24" xoffset="1" yoffset="1" xadvance="29" page="1" chnl="15" />
    <char id="243" x="58" y="50" width="28" height="24" xoffset="1" yoffset="1" xadvance="29" page="1" chnl="15" />
    <char id="244" x="203" y="25" width="28" height="24" xoffset="1" yoffset="1" xadvance="29" page="1" chnl="15" />
    <char id="245" x="58" y="25" width="28" height="24" xoffset="1" yoffset="1" xadvance="29" page="1" chnl="15" />
    <char id="246" x="29" y="25" width="28" height="24" xoffset="1" yoffset="1" xadvance="29" page="1" chnl="15" />
    <char id="247" x="0" y="25" width="28" height="24" xoffset="1" yoffset="1" xadvance="29" page="1" chnl="15" />
    <char id="248" x="203" y="0" width="28" height="24" xoffset="1" yoffset="1" xadvance="29" page="1" chnl="15" />
    <char id="249" x="145" y="0" width="28" height="24" xoffset="1" yoffset="1" xadvance="29" page="1" chnl="15" />
    <char id="250" x="116" y="0" width="28" height="24" xoffset="1" yoffset="1" xadvance="29" page="1" chnl="15" />
    <char id="251" x="87" y="0" width="28" height="24" xoffset="1" yoffset="1" xadvance="29" page="1" chnl="15" />
    <char id="252" x="58" y="0" width="28" height="24" xoffset="1" yoffset="1" xadvance="29" page="1" chnl="15" />
    <char id="253" x="29" y="0" width="28" height="24" xoffset="1" yoffset="1" xadvance="29" page="1" chnl="15" />
    <char id="254" x="0" y="0" width="28" height="24" xoffset="1" yoffset="1" xadvance="29" page="1" chnl="15" />
    <char id="255" x="0" y="105" width="28" height="24" xoffset="1" yoffset="1" xadvance="29" page="0" chnl="15" />
  </chars>
  <kernings count="353">
    <kerning first="66" second="122" amount="-1" />
    <kerning first="66" second="121" amount="-1" />
    <kerning first="66" second="88" amount="-1" />
    <kerning first="66" second="89" amount="-1" />
    <kerning first="65" second="122" amount="-2" />
    <kerning first="69" second="89" amount="-1" />
    <kerning first="65" second="118" amount="-1" />
    <kerning first="65" second="116" amount="-4" />
    <kerning first="65" second="43" amount="-4" />
    <kerning first="65" second="121" amount="-2" />
    <kerning first="65" second="64" amount="-1" />
    <kerning first="65" second="86" amount="-4" />
    <kerning first="65" second="87" amount="-3" />
    <kerning first="65" second="88" amount="-3" />
    <kerning first="65" second="89" amount="-5" />
    <kerning first="65" second="84" amount="-4" />
    <kerning first="125" second="116" amount="-1" />
    <kerning first="125" second="43" amount="-1" />
    <kerning first="125" second="121" amount="-1" />
    <kerning first="125" second="86" amount="-1" />
    <kerning first="70" second="74" amount="-2" />
    <kerning first="125" second="87" amount="-1" />
    <kerning first="125" second="88" amount="-1" />
    <kerning first="125" second="89" amount="-1" />
    <kerning first="125" second="84" amount="-1" />
    <kerning first="70" second="97" amount="-3" />
    <kerning first="70" second="106" amount="-2" />
    <kerning first="70" second="122" amount="-1" />
    <kerning first="70" second="65" amount="-3" />
    <kerning first="71" second="84" amount="-1" />
    <kerning first="71" second="89" amount="-1" />
    <kerning first="71" second="88" amount="-1" />
    <kerning first="71" second="87" amount="-1" />
    <kerning first="71" second="86" amount="-1" />
    <kerning first="71" second="121" amount="-1" />
    <kerning first="71" second="43" amount="-1" />
    <kerning first="124" second="122" amount="-1" />
    <kerning first="124" second="121" amount="-1" />
    <kerning first="71" second="116" amount="-1" />
    <kerning first="124" second="88" amount="-1" />
    <kerning first="124" second="89" amount="-1" />
    <kerning first="123" second="65" amount="-3" />
    <kerning first="68" second="89" amount="-1" />
    <kerning first="68" second="88" amount="-1" />
    <kerning first="123" second="122" amount="-1" />
    <kerning first="123" second="106" amount="-2" />
    <kerning first="123" second="97" amount="-3" />
    <kerning first="68" second="121" amount="-1" />
    <kerning first="123" second="74" amount="-2" />
    <kerning first="122" second="67" amount="-1" />
    <kerning first="68" second="122" amount="-1" />
    <kerning first="122" second="65" amount="-1" />
    <kerning first="122" second="125" amount="-1" />
    <kerning first="122" second="124" amount="-1" />
    <kerning first="122" second="122" amount="-1" />
    <kerning first="76" second="83" amount="-1" />
    <kerning first="76" second="84" amount="-6" />
    <kerning first="76" second="89" amount="-6" />
    <kerning first="76" second="88" amount="-3" />
    <kerning first="76" second="87" amount="-4" />
    <kerning first="76" second="86" amount="-5" />
    <kerning first="76" second="121" amount="-2" />
    <kerning first="76" second="43" amount="-6" />
    <kerning first="76" second="61" amount="-1" />
    <kerning first="122" second="115" amount="-1" />
    <kerning first="122" second="113" amount="-1" />
    <kerning first="76" second="115" amount="-1" />
    <kerning first="76" second="116" amount="-6" />
    <kerning first="76" second="118" amount="-1" />
    <kerning first="122" second="111" amount="-1" />
    <kerning first="122" second="106" amount="-1" />
    <kerning first="122" second="103" amount="-1" />
    <kerning first="122" second="99" amount="-1" />
    <kerning first="122" second="92" amount="-1" />
    <kerning first="75" second="89" amount="-1" />
    <kerning first="122" second="91" amount="-1" />
    <kerning first="122" second="61" amount="-1" />
    <kerning first="122" second="97" amount="-1" />
    <kerning first="122" second="64" amount="-2" />
    <kerning first="122" second="81" amount="-1" />
    <kerning first="122" second="79" amount="-1" />
    <kerning first="122" second="74" amount="-1" />
    <kerning first="79" second="89" amount="-1" />
    <kerning first="79" second="88" amount="-1" />
    <kerning first="122" second="71" amount="-1" />
    <kerning first="118" second="65" amount="-1" />
    <kerning first="118" second="97" amount="-1" />
    <kerning first="79" second="121" amount="-1" />
    <kerning first="116" second="65" amount="-4" />
    <kerning first="116" second="122" amount="-1" />
    <kerning first="79" second="122" amount="-1" />
    <kerning first="116" second="106" amount="-5" />
    <kerning first="80" second="74" amount="-1" />
    <kerning first="116" second="97" amount="-4" />
    <kerning first="80" second="89" amount="-1" />
    <kerning first="80" second="88" amount="-1" />
    <kerning first="116" second="74" amount="-5" />
    <kerning first="115" second="122" amount="-1" />
    <kerning first="80" second="97" amount="-2" />
    <kerning first="80" second="121" amount="-1" />
    <kerning first="115" second="121" amount="-1" />
    <kerning first="80" second="106" amount="-1" />
    <kerning first="115" second="88" amount="-1" />
    <kerning first="80" second="122" amount="-1" />
    <kerning first="80" second="65" amount="-2" />
    <kerning first="114" second="122" amount="-1" />
    <kerning first="114" second="106" amount="-1" />
    <kerning first="81" second="89" amount="-1" />
    <kerning first="81" second="88" amount="-1" />
    <kerning first="114" second="121" amount="-1" />
    <kerning first="114" second="86" amount="-1" />
    <kerning first="114" second="88" amount="-1" />
    <kerning first="81" second="121" amount="-1" />
    <kerning first="114" second="89" amount="-1" />
    <kerning first="114" second="74" amount="-1" />
    <kerning first="81" second="122" amount="-1" />
    <kerning first="113" second="122" amount="-1" />
    <kerning first="113" second="121" amount="-1" />
    <kerning first="113" second="88" amount="-1" />
    <kerning first="113" second="89" amount="-1" />
    <kerning first="112" second="65" amount="-2" />
    <kerning first="83" second="88" amount="-1" />
    <kerning first="112" second="122" amount="-1" />
    <kerning first="112" second="106" amount="-1" />
    <kerning first="112" second="121" amount="-1" />
    <kerning first="112" second="97" amount="-2" />
    <kerning first="112" second="88" amount="-1" />
    <kerning first="112" second="89" amount="-1" />
    <kerning first="82" second="74" amount="-1" />
    <kerning first="112" second="74" amount="-1" />
    <kerning first="111" second="122" amount="-1" />
    <kerning first="82" second="89" amount="-1" />
    <kerning first="82" second="88" amount="-1" />
    <kerning first="111" second="121" amount="-1" />
    <kerning first="82" second="86" amount="-1" />
    <kerning first="82" second="97" amount="-1" />
    <kerning first="82" second="121" amount="-1" />
    <kerning first="111" second="88" amount="-1" />
    <kerning first="82" second="106" amount="-1" />
    <kerning first="111" second="89" amount="-1" />
    <kerning first="82" second="122" amount="-1" />
    <kerning first="82" second="65" amount="-1" />
    <kerning first="110" second="121" amount="-1" />
    <kerning first="84" second="74" amount="-5" />
    <kerning first="110" second="89" amount="-1" />
    <kerning first="109" second="121" amount="-1" />
    <kerning first="109" second="89" amount="-1" />
    <kerning first="108" second="122" amount="-1" />
    <kerning first="108" second="118" amount="-1" />
    <kerning first="108" second="116" amount="-6" />
    <kerning first="108" second="115" amount="-1" />
    <kerning first="84" second="97" amount="-4" />
    <kerning first="108" second="61" amount="-1" />
    <kerning first="108" second="43" amount="-6" />
    <kerning first="108" second="121" amount="-2" />
    <kerning first="108" second="86" amount="-5" />
    <kerning first="108" second="87" amount="-4" />
    <kerning first="108" second="88" amount="-1" />
    <kerning first="84" second="106" amount="-5" />
    <kerning first="108" second="89" amount="-7" />
    <kerning first="108" second="84" amount="-6" />
    <kerning first="108" second="83" amount="-1" />
    <kerning first="84" second="122" amount="-1" />
    <kerning first="107" second="65" amount="-2" />
    <kerning first="107" second="124" amount="-1" />
    <kerning first="84" second="65" amount="-4" />
    <kerning first="107" second="122" amount="-1" />
    <kerning first="107" second="115" amount="-1" />
    <kerning first="107" second="113" amount="-1" />
    <kerning first="107" second="111" amount="-1" />
    <kerning first="107" second="106" amount="-1" />
    <kerning first="107" second="103" amount="-1" />
    <kerning first="107" second="99" amount="-1" />
    <kerning first="107" second="92" amount="-1" />
    <kerning first="90" second="64" amount="-1" />
    <kerning first="107" second="61" amount="-1" />
    <kerning first="107" second="97" amount="-2" />
    <kerning first="107" second="64" amount="-2" />
    <kerning first="107" second="86" amount="-2" />
    <kerning first="107" second="87" amount="-2" />
    <kerning first="107" second="88" amount="-1" />
    <kerning first="107" second="89" amount="-3" />
    <kerning first="107" second="83" amount="-1" />
    <kerning first="107" second="81" amount="-1" />
    <kerning first="107" second="79" amount="-1" />
    <kerning first="107" second="74" amount="-1" />
    <kerning first="103" second="122" amount="-1" />
    <kerning first="103" second="116" amount="-1" />
    <kerning first="89" second="71" amount="-1" />
    <kerning first="89" second="74" amount="-6" />
    <kerning first="89" second="79" amount="-1" />
    <kerning first="89" second="81" amount="-1" />
    <kerning first="89" second="83" amount="-1" />
    <kerning first="103" second="43" amount="-1" />
    <kerning first="89" second="64" amount="-2" />
    <kerning first="89" second="97" amount="-5" />
    <kerning first="103" second="121" amount="-1" />
    <kerning first="89" second="61" amount="-1" />
    <kerning first="89" second="91" amount="-1" />
    <kerning first="89" second="92" amount="-1" />
    <kerning first="89" second="99" amount="-1" />
    <kerning first="89" second="103" amount="-1" />
    <kerning first="89" second="106" amount="-5" />
    <kerning first="89" second="111" amount="-1" />
    <kerning first="89" second="113" amount="-1" />
    <kerning first="89" second="115" amount="-1" />
    <kerning first="103" second="86" amount="-1" />
    <kerning first="89" second="124" amount="-1" />
    <kerning first="89" second="125" amount="-1" />
    <kerning first="89" second="65" amount="-5" />
    <kerning first="89" second="67" amount="-1" />
    <kerning first="88" second="71" amount="-1" />
    <kerning first="88" second="74" amount="-1" />
    <kerning first="88" second="79" amount="-1" />
    <kerning first="88" second="81" amount="-1" />
    <kerning first="88" second="83" amount="-1" />
    <kerning first="103" second="87" amount="-1" />
    <kerning first="103" second="88" amount="-1" />
    <kerning first="103" second="89" amount="-1" />
    <kerning first="88" second="64" amount="-2" />
    <kerning first="88" second="97" amount="-3" />
    <kerning first="103" second="84" amount="-1" />
    <kerning first="88" second="61" amount="-1" />
    <kerning first="88" second="91" amount="-1" />
    <kerning first="88" second="92" amount="-1" />
    <kerning first="88" second="99" amount="-1" />
    <kerning first="88" second="103" amount="-1" />
    <kerning first="88" second="106" amount="-1" />
    <kerning first="88" second="111" amount="-1" />
    <kerning first="88" second="113" amount="-1" />
    <kerning first="88" second="115" amount="-1" />
    <kerning first="102" second="65" amount="-3" />
    <kerning first="102" second="122" amount="-1" />
    <kerning first="102" second="106" amount="-2" />
    <kerning first="88" second="122" amount="-1" />
    <kerning first="88" second="124" amount="-1" />
    <kerning first="88" second="125" amount="-1" />
    <kerning first="88" second="65" amount="-3" />
    <kerning first="88" second="67" amount="-1" />
    <kerning first="102" second="97" amount="-3" />
    <kerning first="87" second="74" amount="-3" />
    <kerning first="102" second="74" amount="-2" />
    <kerning first="101" second="89" amount="-1" />
    <kerning first="100" second="122" amount="-1" />
    <kerning first="87" second="64" amount="-1" />
    <kerning first="87" second="97" amount="-3" />
    <kerning first="100" second="121" amount="-1" />
    <kerning first="100" second="88" amount="-1" />
    <kerning first="100" second="89" amount="-1" />
    <kerning first="99" second="122" amount="-1" />
    <kerning first="99" second="121" amount="-1" />
    <kerning first="87" second="106" amount="-3" />
    <kerning first="99" second="88" amount="-1" />
    <kerning first="99" second="89" amount="-1" />
    <kerning first="98" second="122" amount="-1" />
    <kerning first="87" second="122" amount="-1" />
    <kerning first="98" second="121" amount="-1" />
    <kerning first="98" second="88" amount="-1" />
    <kerning first="87" second="65" amount="-3" />
    <kerning first="98" second="89" amount="-1" />
    <kerning first="93" second="89" amount="-1" />
    <kerning first="92" second="122" amount="-1" />
    <kerning first="92" second="121" amount="-1" />
    <kerning first="92" second="88" amount="-1" />
    <kerning first="86" second="74" amount="-3" />
    <kerning first="92" second="89" amount="-1" />
    <kerning first="61" second="122" amount="-1" />
    <kerning first="61" second="116" amount="-1" />
    <kerning first="86" second="64" amount="-1" />
    <kerning first="86" second="97" amount="-4" />
    <kerning first="61" second="121" amount="-1" />
    <kerning first="61" second="88" amount="-1" />
    <kerning first="61" second="84" amount="-1" />
    <kerning first="55" second="57" amount="-1" />
    <kerning first="55" second="56" amount="-1" />
    <kerning first="86" second="106" amount="-3" />
    <kerning first="55" second="54" amount="-1" />
    <kerning first="55" second="52" amount="-5" />
    <kerning first="55" second="48" amount="-1" />
    <kerning first="86" second="122" amount="-1" />
    <kerning first="54" second="55" amount="-1" />
    <kerning first="54" second="49" amount="-1" />
    <kerning first="86" second="65" amount="-4" />
    <kerning first="52" second="55" amount="-1" />
    <kerning first="52" second="49" amount="-2" />
    <kerning first="43" second="67" amount="-1" />
    <kerning first="43" second="65" amount="-5" />
    <kerning first="64" second="89" amount="-2" />
    <kerning first="64" second="88" amount="-2" />
    <kerning first="64" second="87" amount="-1" />
    <kerning first="64" second="86" amount="-1" />
    <kerning first="64" second="97" amount="-2" />
    <kerning first="64" second="121" amount="-2" />
    <kerning first="43" second="125" amount="-1" />
    <kerning first="43" second="124" amount="-1" />
    <kerning first="43" second="122" amount="-1" />
    <kerning first="64" second="122" amount="-1" />
    <kerning first="64" second="65" amount="-2" />
    <kerning first="43" second="115" amount="-1" />
    <kerning first="43" second="113" amount="-1" />
    <kerning first="43" second="111" amount="-1" />
    <kerning first="43" second="106" amount="-5" />
    <kerning first="43" second="103" amount="-1" />
    <kerning first="97" second="84" amount="-4" />
    <kerning first="97" second="89" amount="-5" />
    <kerning first="97" second="88" amount="-3" />
    <kerning first="97" second="87" amount="-3" />
    <kerning first="43" second="99" amount="-1" />
    <kerning first="97" second="86" amount="-4" />
    <kerning first="97" second="64" amount="-1" />
    <kerning first="97" second="121" amount="-2" />
    <kerning first="97" second="43" amount="-4" />
    <kerning first="43" second="92" amount="-1" />
    <kerning first="43" second="91" amount="-1" />
    <kerning first="43" second="61" amount="-1" />
    <kerning first="43" second="97" amount="-5" />
    <kerning first="43" second="83" amount="-1" />
    <kerning first="43" second="81" amount="-1" />
    <kerning first="43" second="79" amount="-1" />
    <kerning first="43" second="74" amount="-5" />
    <kerning first="43" second="71" amount="-1" />
    <kerning first="38" second="116" amount="-1" />
    <kerning first="97" second="116" amount="-4" />
    <kerning first="38" second="49" amount="-1" />
    <kerning first="97" second="118" amount="-1" />
    <kerning first="38" second="43" amount="-1" />
    <kerning first="38" second="121" amount="-1" />
    <kerning first="97" second="122" amount="-2" />
    <kerning first="38" second="86" amount="-1" />
    <kerning first="38" second="87" amount="-1" />
    <kerning first="38" second="89" amount="-1" />
    <kerning first="121" second="71" amount="-1" />
    <kerning first="121" second="74" amount="-6" />
    <kerning first="121" second="79" amount="-1" />
    <kerning first="121" second="81" amount="-1" />
    <kerning first="121" second="64" amount="-2" />
    <kerning first="121" second="97" amount="-6" />
    <kerning first="121" second="121" amount="-3" />
    <kerning first="121" second="61" amount="-1" />
    <kerning first="121" second="91" amount="-1" />
    <kerning first="121" second="92" amount="-1" />
    <kerning first="121" second="99" amount="-1" />
    <kerning first="121" second="103" amount="-1" />
    <kerning first="121" second="106" amount="-6" />
    <kerning first="121" second="111" amount="-1" />
    <kerning first="121" second="113" amount="-1" />
    <kerning first="121" second="115" amount="-1" />
    <kerning first="38" second="84" amount="-1" />
    <kerning first="121" second="67" amount="-1" />
    <kerning first="121" second="122" amount="-1" />
    <kerning first="121" second="124" amount="-1" />
    <kerning first="121" second="125" amount="-1" />
    <kerning first="121" second="65" amount="-6" />
  </kernings>
</font>
