﻿{
    "sDescription": "Level1",
    "iNoEggs":7,
    
    "iTotalTime": 75,
    "sBackground": "",
    "TheEvils": [
        {
            "iEvilType": 0,
            "Coordinates": [
                {
                    "X": 230,
                    "Y": 280
                },
                {
                    "X": 650,
                    "Y": 280
                },
                {
                    "X": 230,
                    "Y": 280
                },
                {
                    "X": 650,
                    "Y": 280
                }
            ]
        },
        {
            "iEvilType": 0,
            "Coordinates": [
                {
                    "X": 130,
                    "Y": 560
                },
                {
                    "X": 650,
                    "Y": 560
                },
                {
                    "X": 130,
                    "Y": 560
                },
                {
                    "X": 650,
                    "Y": 560
                }
            ]
        }

    ],
    "TheTiles": [
        {
            "iTileType": 0,
            "PosX": 190,
            "PosY": 275
        },
        {
            "iTileType": 0,
            "PosX": 700,
            "PosY": 275
        },
        {
            "iTileType": 0,
            "PosX": 450,
            "PosY": 200
        },
        {
            "iTileType": 1,
            "PosX": 130,
            "PosY": 600
        },
        {
            "iTileType": 1,
            "PosX": 280,
            "PosY": 600
        },
        {
            "iTileType": 1,
            "PosX": 430,
            "PosY": 600
        },


        {
            "iTileType": 1,
            "PosX": 580,
            "PosY": 600
        }
    ],
    "TheEggs": [
        {
            "iEggType": 0,
            "PosX": 300,
            "PosY": 240
        },
        {
            "iEggType": 0,
            "PosX": 600,
            "PosY": 240
        },

        {
            "iEggType": 0,
            "PosX": 100,
            "PosY": 200
        },
         {
            "iEggType": 0,
            "PosX": 800,
            "PosY": 200
        },
        {
            "iEggType": 0,
            "PosX": 250,
            "PosY": 650
        },
        {
            "iEggType": 0,
            "PosX": 400,
            "PosY": 650
        },
        {
            "iEggType": 0,
            "PosX": 555,
            "PosY": 650
        }

    ]
}

