﻿{
    "sDescription": "Level3",
    "iNoEggs":9 ,
    "iNoMoon": 1,
    "iTotalTime": 100,
    "sBackground": "grass",
    "TheEvils": [
        {
            "iEvilType": 0,
            "Coordinates": [
                {
                    "X": 970,
                    "Y": 500
                },
                {
                    "X": 700,
                    "Y": 500
                },
                {
                    "X": 700,
                    "Y": 650
                },
                {
                    "X": 700,
                    "Y": 500
                }
            ]
        },
        {
            "iEvilType": 0,
            "Coordinates": [
                {
                    "X": 330,
                    "Y": 220
                },
                {
                    "X": 600,
                    "Y": 220
                },
                {
                    "X": 330,
                    "Y": 220
                },
                {
                    "X": 600,
                    "Y": 220
                }
            ]
        },
        {
            "iEvilType": 0,
            "Coordinates": [
                {
                    "X": 600,
                    "Y": 60
                },
                {
                    "X": 330,
                    "Y": 60
                },
                {
                    "X": 600,
                    "Y": 60
                },
                {
                    "X": 330,
                    "Y": 60
                }
            ]
        },
        {
            "iEvilType": 0,
            "Coordinates": [
                {
                    "X": 130,
                    "Y": 130
                },
                {
                    "X": 130,
                    "Y": 300
                },
                {
                    "X": 0,
                    "Y": 300
                },
                {
                    "X": 130,
                    "Y": 300
                }
            ]
        },
        {
            "iEvilType": 0,
            "Coordinates": [
                {
                    "X": 970,
                    "Y": 240
                },
                {
                    "X": 700,
                    "Y": 240
                },
                {
                    "X": 970,
                    "Y": 240
                },
                {
                    "X": 700,
                    "Y": 240
                }
            ]
        }

    ],
    "TheTiles": [
        {
            "iTileType": 3,
            "PosX": 900,
            "PosY": 340
        },
        {
            "iTileType": 4,
            "PosX": 900,
            "PosY": 100
        },
     {
            "iTileType": 1,
            "PosX": 130,
            "PosY": 600
        },
        {
            "iTileType": 1,
            "PosX": 280,
            "PosY": 600
        },
        {
            "iTileType": 1,
            "PosX": 430,
            "PosY": 600
        },


        {
            "iTileType": 1,
            "PosX": 580,
            "PosY": 600
        },
       
        {
            "iTileType": 9,
            "PosX": 330,
            "PosY": 140
        },
        {
            "iTileType": 9,
            "PosX": 530,
            "PosY": 140
        },
        {
            "iTileType": 9,
            "PosX": 435,
            "PosY": 280
        },
       
         {
            "iTileType": 6,
            "PosX": 0,
            "PosY": 130
        }
    ],
    "TheEggs": [
        {
            "iEggType": 0,
            "PosX": 470,
            "PosY": 150
        },
        {
            "iEggType": 0,
            "PosX": 250,
            "PosY": 80
        },
        {
            "iEggType": 0,
            "PosX": 930,
            "PosY": 330
        },
        {
            "iEggType": 0,
            "PosX": 930,
            "PosY": 170
        },
        {
            "iEggType": 0,
            "PosX": 40,
            "PosY": 170
        },
         {
            "iEggType": 0,
            "PosX": 700,
            "PosY": 80
        },
        {
            "iEggType": 0,
            "PosX": 370,
            "PosY": 110
        },
        {
            "iEggType": 0,
            "PosX": 570,
            "PosY": 110
        },
      
        {
            "iEggType": 0,
            "PosX": 40,
            "PosY": 80
        }
       

    ]
   
}

