﻿	{
	  "Description" : "FirstAnimation", 
      "sType" : "Animated",
	  "SpriteMaps" : 
	  [
		{
            "SpriteMapName" : "Sprites/tile5",
            "Columns" : 1, 
            "Rows" : 1
		}
	  ],
	  "AnimationSequences" : 
	  [
		{	
			"AnimationName" : "idle",
			"AnimationTime" : 1,
			"AnimationLoop" : 0,
			"AnimationFrames" : 
			[
				{	
					"weight" : 1,				
					"map" : 0,
					"row" : 0,
					"column" : 0,
					"colliders" :
					[
                        {
                            "group": "TOP",
                            "x": 4,
                            "y": 0,
                            "width": 80,
                            "height": 5
                        },
                        {
                            "group": "BOTTOM",
                            "x": 31,
                            "y": 27,
                            "width": 24,
                            "height": 3
                        },
                        {
                            "group": "BOTTOM",
                            "x": 4,
                            "y": 84,
                            "width": 21,
                            "height": 3
                        },
                        {
                            "group": "LEFT",
                            "x": 0,
                            "y": 6,
                            "width": 3,
                            "height": 77
                        },
                       
                        {
                            "group": "RIGHT",
                            "x": 27,
                            "y": 31,
                            "width": 3 ,
                            "height": 52
                        },
                        {
                            "group": "RIGHT",
                            "x": 86,
                            "y": 5,
                            "width": 3 ,
                            "height": 20
                        }

					]
				}
			]
		}
	  ]
	}
