﻿	{
	  "Description" : "FirstAnimation", 
      "sType" : "Animated",
	  "SpriteMaps" : 
	  [
		{
            "SpriteMapName" : "Sprites/tile3",
            "Columns" : 1, 
            "Rows" : 1
		}
	  ],
	  "AnimationSequences" : 
	  [
		{	
			"AnimationName" : "idle",
			"AnimationTime" : 1,
			"AnimationLoop" : 0,
			"AnimationFrames" : 
			[
				{	
					"weight" : 1,				
					"map" : 0,
					"row" : 0,
					"column" : 0,
					"colliders" :
					[
                        {
                            "group": "TOP",
                            "x": 4,
                            "y": 3,
                            "width": 78,
                            "height": 4
                        },
                        {
                            "group": "BOTTOM",
                            "x": 31,
                            "y": 25,
                            "width": 27,
                            "height": 5
                        },
                        {
                            "group": "BOTTOM",
                            "x": 6,
                            "y": 84,
                            "width": 17,
                            "height": 2
                        },
                        {
                            "group": "BOTTOM",
                            "x": 65,
                            "y": 82,
                            "width": 18,
                            "height": 4
                        },
                        {
                            "group": "LEFT",
                            "x": 1,
                            "y": 8,
                            "width": 2,
                            "height": 75
                        },
                        
                        {
                            "group": "LEFT",
                            "x": 59,
                            "y": 31,
                            "width": 4,
                            "height": 29
                        },
                        {
                            "group": "RIGHT",
                            "x": 25,
                            "y": 32,
                            "width": 4 ,
                            "height": 50
                        },
                        {
                            "group": "RIGHT",
                            "x": 84,
                            "y": 9,
                            "width": 3 ,
                            "height": 72
                        }

					]
				}
			]
		}
	  ]
	}
