﻿	{
	  "Description" : "FirstAnimation", 
      "sType" : "Animated",
	  "SpriteMaps" : 
	  [
		{
            "SpriteMapName" : "Sprites/basket",
            "Columns" : 1, 
            "Rows" : 1
		}
	  ],
	  "AnimationSequences" : 
	  [
		{	
			"AnimationName" : "idle",
			"AnimationTime" : 1,
			"AnimationLoop" : 0,
			"AnimationFrames" : 
			[
				{	
					"weight" : 1,				
					"map" : 0,
					"row" : 0,
					"column" : 0,
					"colliders" :
					[
                        {
                            "group": "TOP",
                            "x": 36,
                            "y": 0,
                            "width": 50,
                            "height": 9
                        },
                        {
                            "group": "TOP",
                            "x": 96,
                            "y": 12,
                            "width": 13,
                            "height": 3
                        },
                        {
                            "group": "TOP",
                            "x": 14,
                            "y": 13,
                            "width": 10,
                            "height": 6
                        },
                        {
                            "group": "RIGHT",
                            "x": 112,
                            "y": 18,
                            "width": 4,
                            "height": 100
                        },
                        {
                            "group": "LEFT",
                            "x": 7,
                            "y": 20,
                            "width": 6,
                            "height": 105
                        }                      

					]
				}
			]
		}
	  ]
	  
	}
