﻿	{
	  "Description" : "FirstAnimation", 
      "sType" : "Animated",
	  "SpriteMaps" : 
	  [
		{
            "SpriteMapName" : "Sprites/Star",
            "Columns" : 1, 
            "Rows" : 1
		}
	  ],
	  "AnimationSequences" : 
	  [
		
		
		{	
			"AnimationName" : "idle",
			"AnimationTime" : 0,
			"AnimationLoop" : 0,
			"AnimationFrames" : 
			[
				{	
					"weight" : 1,				
					"map" : 0,
					"row" : 0,
					"column" : 0,
					"colliders" :
					[
						{
							"group" : "egg",
							"x" : 0,
							"y" : 0,
							"width" : 28,
							"height" : 32
						}

					]
				}
			]
		}
		
	  ]
	  
	}
